my_assignment.sim/sim_1/behav/xsim/simulate.log
Time resolution is 1 ps
@40000 === AXI4-Stream Processor Testbench Started ===
@40000
*** TEST: CH0 and CH1 sending packets ***
@50000
=== Starting packet transmission on CH0 (Size: 5) ===
>> GEN CH0: a2=02 a1=01 a0=00 → DATA=020100
@50000
=== Starting packet transmission on CH1 (Size: 5) ===
>> GEN CH1: a2=a2 a1=a1 a0=a0 → DATA=a2a1a0
@65000 CH0 SENT BEAT 1/5: DATA=020100, LAST=0
>> GEN CH0: a2=05 a1=04 a0=03 → DATA=050403
@65000 CH1 SENT BEAT 1/5: DATA=a2a1a0, LAST=0
>> GEN CH1: a2=a5 a1=a4 a0=a3 → DATA=a5a4a3
@85000 CH0 SENT BEAT 2/5: DATA=050403, LAST=0
>> GEN CH0: a2=08 a1=07 a0=06 → DATA=080706
@85000 CH1 SENT BEAT 2/5: DATA=a5a4a3, LAST=0
>> GEN CH1: a2=a8 a1=a7 a0=a6 → DATA=a8a7a6
@105000 CH0 SENT BEAT 3/5: DATA=080706, LAST=0
>> GEN CH0: a2=0b a1=0a a0=09 → DATA=0b0a09
@105000 CH1 SENT BEAT 3/5: DATA=a8a7a6, LAST=0
>> GEN CH1: a2=ab a1=aa a0=a9 → DATA=abaaa9
@125000 CH0 SENT BEAT 4/5: DATA=0b0a09, LAST=0
>> GEN CH0: a2=0e a1=0d a0=0c → DATA=0e0d0c
@125000 CH1 SENT BEAT 4/5: DATA=abaaa9, LAST=0
>> GEN CH1: a2=ae a1=ad a0=ac → DATA=aeadac
@125000                              -> MASTER_OUTPUT: a3_03_a2_02_a1_01_a0_00 LAST=0
@145000 CH0 SENT BEAT 5/5: DATA=0e0d0c, LAST=1
@145000 === Completed packet transmission on CH0 ===

@145000 CH1 SENT BEAT 5/5: DATA=aeadac, LAST=1
@145000 === Completed packet transmission on CH1 ===

@145000                              -> MASTER_OUTPUT: a7_07_a6_06_a5_05_a4_04 LAST=0
@195000                              -> MASTER_OUTPUT: ab_0b_aa_0a_a9_09_a8_08 LAST=0
@205000                              -> MASTER_OUTPUT: 00_00_ae_0e_ad_0d_ac_0c LAST=1
@215000
*** TEST: CH0 and CH1 sending packets ***
@225000
=== Starting packet transmission on CH0 (Size: 5) ===
>> GEN CH0: a2=11 a1=10 a0=0f → DATA=11100f
@225000
=== Starting packet transmission on CH1 (Size: 5) ===
>> GEN CH1: a2=b1 a1=b0 a0=af → DATA=b1b0af
@235000 CH0 SENT BEAT 1/5: DATA=11100f, LAST=0
>> GEN CH0: a2=14 a1=13 a0=12 → DATA=141312
@235000 CH1 SENT BEAT 1/5: DATA=b1b0af, LAST=0
>> GEN CH1: a2=b4 a1=b3 a0=b2 → DATA=b4b3b2
@255000 CH0 SENT BEAT 2/5: DATA=141312, LAST=0
>> GEN CH0: a2=17 a1=16 a0=15 → DATA=171615
@255000 CH1 SENT BEAT 2/5: DATA=b4b3b2, LAST=0
>> GEN CH1: a2=b7 a1=b6 a0=b5 → DATA=b7b6b5
@275000 CH0 SENT BEAT 3/5: DATA=171615, LAST=0
>> GEN CH0: a2=1a a1=19 a0=18 → DATA=1a1918
@275000 CH1 SENT BEAT 3/5: DATA=b7b6b5, LAST=0
>> GEN CH1: a2=ba a1=b9 a0=b8 → DATA=bab9b8
@295000 CH0 SENT BEAT 4/5: DATA=1a1918, LAST=0
>> GEN CH0: a2=1d a1=1c a0=1b → DATA=1d1c1b
@295000 CH1 SENT BEAT 4/5: DATA=bab9b8, LAST=0
>> GEN CH1: a2=bd a1=bc a0=bb → DATA=bdbcbb
@295000                              -> MASTER_OUTPUT: b2_12_b1_11_b0_10_af_0f LAST=0
@315000 CH0 SENT BEAT 5/5: DATA=1d1c1b, LAST=1
@315000 === Completed packet transmission on CH0 ===

@315000 CH1 SENT BEAT 5/5: DATA=bdbcbb, LAST=1
@315000 === Completed packet transmission on CH1 ===

@385000
*** TEST: CH0 and CH1 sending packets ***
@395000
=== Starting packet transmission on CH0 (Size: 5) ===
>> GEN CH0: a2=20 a1=1f a0=1e → DATA=201f1e
@395000
=== Starting packet transmission on CH1 (Size: 5) ===
>> GEN CH1: a2=c0 a1=bf a0=be → DATA=c0bfbe
@405000 CH0 SENT BEAT 1/5: DATA=201f1e, LAST=0
>> GEN CH0: a2=23 a1=22 a0=21 → DATA=232221
@405000 CH1 SENT BEAT 1/5: DATA=c0bfbe, LAST=0
>> GEN CH1: a2=c3 a1=c2 a0=c1 → DATA=c3c2c1
@415000                              -> MASTER_OUTPUT: b6_16_b5_15_b4_14_b3_13 LAST=0
@425000 CH0 SENT BEAT 2/5: DATA=232221, LAST=0
>> GEN CH0: a2=26 a1=25 a0=24 → DATA=262524
@425000 CH1 SENT BEAT 2/5: DATA=c3c2c1, LAST=0
>> GEN CH1: a2=c6 a1=c5 a0=c4 → DATA=c6c5c4
@445000 CH0 SENT BEAT 3/5: DATA=262524, LAST=0
>> GEN CH0: a2=29 a1=28 a0=27 → DATA=292827
@445000 CH1 SENT BEAT 3/5: DATA=c6c5c4, LAST=0
>> GEN CH1: a2=c9 a1=c8 a0=c7 → DATA=c9c8c7
@465000 CH0 SENT BEAT 4/5: DATA=292827, LAST=0
>> GEN CH0: a2=2c a1=2b a0=2a → DATA=2c2b2a
@465000 CH1 SENT BEAT 4/5: DATA=c9c8c7, LAST=0
>> GEN CH1: a2=cc a1=cb a0=ca → DATA=cccbca
@485000 CH0 SENT BEAT 5/5: DATA=2c2b2a, LAST=1
@485000 === Completed packe