my_assignment.sim/sim_1/behav/xsim/stream_processor_tb.vcd
$date
   Mon Jun 23 19:43:03 2025
$end

$version
  2024.1
  $dumpfile ("stream_processor_tb.vcd") 
$end

$timescale
  1ps
$end

$scope module tb_stream_processor_2 $end
$var reg 1 ! clk $end
$var reg 1 " clk_monitor $end
$var reg 1 # reset_n $end
$var reg 48 $ s_axis_tdata [47:0] $end
$var reg 2 % s_axis_tvalid [1:0] $end
$var reg 2 & s_axis_tready [1:0] $end
$var reg 2 ' s_axis_tlast [1:0] $end
$var reg 64 ( m_axis_tdata [63:0] $end
$var reg 1 ) m_axis_tvalid $end
$var reg 1 * m_axis_tready $end
$var reg 1 + m_axis_tlast $end
$var reg 1 , handshake $end
$var reg 1 - config_mode $end
$var reg 1 . status_packets_size_mismatch $end
$var reg 8 / ch0_data_counter [7:0] $end
$var reg 8 0 ch1_data_counter [7:0] $end
$scope module dut $end
$var wire 1 1 clk $end
$var wire 1 2 reset_n $end
$var wire 48 3 s_axis_tdata [47:0] $end
$var wire 2 4 s_axis_tvalid [1:0] $end
$var reg 2 & s_axis_tready [1:0] $end
$var wire 2 5 s_axis_tlast [1:0] $end
$var reg 64 ( m_axis_tdata [63:0] $end
$var reg 1 ) m_axis_tvalid $end
$var wire 1 6 m_axis_tready $end
$var reg 1 + m_axis_tlast $end
$var wire 1 7 config_mode $end
$var reg 1 . status_packets_size_mismatch $end
$var reg 1 8 start_proces $end
$var reg 1 9 start_proces_1f $end
$var reg 1 : m_axis_tready_next $end
$var reg 50 ; fifo_din [49:0] $end
$var reg 50 < fifo_dout [49:0] $end
$var reg 48 = fifo_data [47:0] $end
$var reg 2 > fifo_tlast [1:0] $end
$var reg 2 ? ch_enable [1:0] $end
$var reg 1 @ inter_enable $end
$var reg 2 A m_axis_tlast_sig [1:0] $end
$var reg 1 B inter_buffer_tlast $end
$var reg 1 C m_axis_tlast_both $end
$var reg 2 D reset_init [1:0] $end
$var reg 4 E switch_select $end
$var reg 64 F inter_buffer_data_stage_2 [63:0] $end
$var reg 1 G internal_buffer_valid_inter $end
$var reg 1 H ch0_valid_stage_2 $end
$var reg 1 I ch1_valid_stage_2 $end
$var reg 1 J inter_buffer_last $end
$var reg 1 K ch0_last_stage_2 $end
$var reg 1 L ch1_last_stage_2 $end
$var reg 1 M internal_buffer_ready_inter $end
$var reg 1 N ch0_ready_stage_0 $end
$var reg 1 O ch1_ready_stage_0 $end
$var reg 1 P ch0_ready_stage_1 $end
$var reg 1 Q ch1_ready_stage_1 $end
$var reg 1 R buffer_valid $end
$var reg 64 S m_axis_tdata_after_mux [63:0] $end
$var reg 1 T non_inter_mode_ch_0 $end
$var reg 1 U non_inter_mode_ch_1 $end
$var reg 1 V ch0_stop $end
$var reg 1 W ch1_stop $end
$var reg 3 X state $end
$var reg 1 Y fifo_rd_intr $end
$var reg 64 Z inter_buffer_data [63:0] $end
$var reg 1 [ ch1_last_stage_1 $end
$var reg 1 \ ch0_last_stage_1 $end
$var reg 64 ] ch0_data_stage_1 [63:0] $end
$var reg 64 ^ ch1_data_stage_1 [63:0] $end
$var reg 64 _ ch0_data_stage_2 [63:0] $end
$var reg 64 ` ch1_data_stage_2 [63:0] $end
$var reg 1 a both_fifo_valid $end
$var reg 1 b inter_buffer_has_data $end
$var reg 1 c ch0_valid_stage_1 $end
$var reg 1 d ch1_valid_stage_1 $end
$var reg 1 e ninter_enable $end
$scope module sync_fifo[0].fifo_inst $end
$var wire 1 1 clk $end
$var wire 1 f reset $end
$var wire 25 g din [24:0] $end
$var wire 1 h wr_en $end
$var reg 1 i full $end
$var wire 1 j rd_en $end
$var reg 25 k dout [24:0] $end
$var reg 1 l valid $end
$var reg 1 m empty $end
$var reg 8 n wr_ptr [7:0] $end
$var reg 8 o rd_ptr [7:0] $end
$var reg 9 p count [8:0] $end
$upscope $end
$scope module sync_fifo[1].fifo_inst $end
$var wire 1 1 clk $end
$var wire 1 f reset $end
$var wire 25 q din [24:0] $end
$var wire 1 r wr_en $end
$var reg 1 s full $end
$var wire 1 t rd_en $end
$var reg 25 u dout [49:25] $end
$var reg 1 v valid $end
$var reg 1 w empty $end
$var reg 8 x wr_ptr [7:0] $end
$var reg 8 y rd_ptr [7:0] $end
$var reg 9 z count [8:0] $end
$upscope $end
$scope module u_non_inter_machine_1 $end
$var wire 1 1 clk $end
$var wire 1 2 reset_n $end
$var wire 1 { enable $end
$var wire 24 | fifo_data [23:0] $end
$var wire 1 } fifo_tlast $end
$var wire 1 ~ fifo_valid $end
$var wire 1 !! inter_buffer_ready $end
$var reg 1 "! fifo_read $end
$var reg 1 c non_inter_buffer_has_data $end
$var reg 1 \ non_inter_m_axis_tlast $end
$var reg 3 #! m_axis_tlast_sig [2:0] $end
$var reg 1 $! first_a $end
$var reg 4 %! switch_select $end
$var reg 4 &! STATE_MUX $end
$var reg 4 '! data_wrt_reg_sel $end
$var reg 1 (! buffer_1_has_data $end
$var reg 1 )! buffer_2_has_data $end
$var reg 1 *! buffer_3_has_data $end
$upscope $end
$scope module u_non_inter_machine_2 $end
$var wire 1 1 clk $end
$var wire 1 2 reset_n $end
$var wire 1 +! enable $end
$var wire 24 ,! fifo_data [23:0] $end
$var wire 1 -! fifo_tlast $end
$var wire 1 .! fifo_valid $end
$var wire 1 /! inter_buffer_ready $end
$var reg 1 0! fifo_read $end
$var reg 1 d non_inter_buffer_has_data $end
$var reg 1 [ non_inter_m_axis_tlast $end
$var reg 3 1! m_axis_tlast_sig [2:0] $end
$var reg 1 2! first_a $end
$var reg 4 3! switch_select $end
$var reg 4 4! STATE_MUX $end
$var reg 4 5! data_wrt_reg_sel $end
$var reg 1 6! buffer_1_has_data $end
$var reg 1 7! buffer_2_has_data $end
$var reg 1 8! buffer_3_has_data $end
$upscope $end
$scope module u_inter_machine $end
$var wire 1 1 clk $end
$var wire 1 2 reset_n $end
$var wire 1 9! enable $end
$var wire 24 :! fifo_data_out_1 [23:0] $end
$var wire 24 ;! fifo_data_out_2 [23:0] $end
$var wire 1 <! fifo_tlast $end
$var wire 1 =! fifo_valid $end
$var wire 1 >! inter_buffer_ready $end
$var reg 1 Y fifo_read $end
$var reg 1 b inter_buffer_has_data $end
$var reg 1 B inter_buffer_tlast $end
$var reg 3 ?! m_axis_tlast_sig [2:0] $end
$var reg 48 @! fifo_data_combine [47:0] $end
$var reg 1 A! first_a $end
$var reg 4 B! switch_select $end
$var reg 4 C! STATE_MUX $end
$var reg 4 D! data_wrt_reg_sel $end
$var reg 1 E! buffer_1_has_data $end
$var reg 1 F! buffer_2_has_data $end
$var reg 1 G! buffer_3_has_data $end
$upscope $end
$upscope $end
$scope task generate_channel_data $end
$upscope $end
$scope task send_beat $end
$upscope $end
$scope task send_packet $end
$upscope $end
$scope task test_basic $end
$upscope $end
$upscope $end
$enddefinitions $end

#0
$dumpvars
0!
1!!
0"
x"!
0#
b0 #!
b0 $
0$!
b0 %
b0 %!
bx &
b0 &!
b0 '
b1 '!
b0 (
0(!
0)
0)!
1*
0*!
0+
0+!
x,
bx ,!
1-
x-!
0.
x.!
b0 /
0/!
b10100000 0
x0!
01
b0 1!
02
02!
b0 3
b0 3!
b0 4
b0 4!
b0 5
b1 5!
16
06!
17
07!
x8
08!
x9
09!
x:
bx :!
b0 ;
bx ;!
bx <
x<!
bx =
x=!
bx >
1>!
b0 ?
b0 ?!
0@
bx @!
bx A
0A!
0B
b0 B!
xC
b0 C!
bx D
b1 D!
bx E
0E!
b0 F
0F!
0G
0G!
0H
0I
0J
0K
0L
1M
1N
0O
1P
1Q
xR
bx S
1T
0U
0V
0W
b0 X
xY
b0 Z
0[
0\
b0 ]
b0 ^
b0 _
b0 `
xa
0b
0c
0d
0e
1f
b0 g
0h
xi
xj
bx k
xl
xm
bx n
bx o
bx p
b0 q
0r
xs
xt
bx u
xv
xw
bx x
bx y
bx z
0{
bx |
x}
x~
$end

#5000
1!
0"!
b11 &
0,
0.!
00!
11
0=!
0Y
0a
0i
0j
0l
1m
b0 n
b0 o
b0 p
0s
0t
0v
1w
b0 x
b0 y
b0 z
0~

#6000
1"

#10000
0!
01

#11000
0"

#15000
1!
11

#16000
1"

#20000
0!
1#
01
12
0f

#21000
0"

#25000
1!
11
19!
1@
b11 X

#26000
1"

#30000
0!
01

#31000
0"

#35000
1!
11

#36000
1"

#40000
0!
01

#41000
0"

#45000
1!
11

#46000
1"

#50000
0!
b11 /
b10100011 0
01

#51000
0"

#55000
1!
b101000101010000110100000000000100000000100000000 $
b11 %
11
b101000101010000110100000000000100000000100000000 3
b11 4
b1010001010100001101000000000000100000000100000000 ;
b100000000100000000 g
1h
b101000101010000110100000 q
1r

#56000
1"

#60000
0!
01

#61000
0"

#65000
1!
1"!
b0 %
b101000101010000110100000 ,!
0-!
1.!
b110 /
b10100110 0
10!
11
b0 4
b100000000100000000 :!
b101000101010000110100000 ;!
b1010001010100001101000000000000100000000100000000 <
0<!
b101000101010000110100000000000100000000100000000 =
1=!
b0 >
b101000100000001010100001000000011010000000000000 @!
0C
1Y
1a
0h
1j
b100000000100000000 k
1l
0m
b1 n
b1 p
0r
1t
b101000101010000110100000 u
1v
0w
b1 x
b1 z
b100000000100000000 |
0}
1~

#66000
1"

#70000
0!
01

#71000
0"

#75000
1!
0"!
b101001011010010010100011000001010000010000000011 $
b11 %
bx ,!
x-!
0.!
00!
11
b101001011010010010100011000001010000010000000011 3
b11 4
bx :!
b1010010110100100101000110000001010000010000000011 ;
bx ;!
bx <
x<!
bx =
0=!
bx >
bx @!
xC
b10 D!
0Y
b101000100000001010100001000000011010000000000000 Z
0a
b1010000010000000011 g
1h
0j
bx k
0l
1m
b1 o
b0 p
b101001011010010010100011 q
1r
0t
bx u
0v
1w
b1 y
b0 z
bx |
x}
0~

#76000
1"

#80000
0!
0*
01
06

#81000
0"

#85000
1!
1"!
b0 %
b101001011010010010100011 ,!
0-!
1.!
b1001 /
b10101001 0
10!
11
b0 4
b1010000010000000011 :!
b101001011010010010100011 ;!
b1010010110100100101000110000001010000010000000011 <
0<!
b101001011010010010100011000001010000010000000011 =
1=!
b0 >
b101001010000010110100100000001001010001100000011 @!
0C
1Y
1a
0h
1j
b1010000010000000011 k
1l
0m
b10 n
b1 p
0r
1t
b101001011010010010100011 u
1v
0w
b10 x
b1 z
b1010000010000000011 |
0}
1~

#86000
1"

#90000
0!
01

#91000
0"

#95000
1!
0"!
b101010001010011110100110000010000000011100000110 $
b11 %
bx ,!
x-!
0.!
00!
11
b101010001010011110100110000010000000011100000110 3
b11 4
bx :!
b1010100010100111101001100000010000000011100000110 ;
bx ;!
bx <
x<!
bx =
0=!
bx >
bx @!
xC
b11 D!
1E!
0Y
b1010001100000011101000100000001010100001000000011010000000000000 Z
0a
1b
b10000000011100000110 g
1h
0j
bx k
0l
1m
b10 o
b0 p
b101010001010011110100110 q
1r
0t
bx u
0v
1w
b10 y
b0 z
bx |
x}
0~

#96000
1"

#100000
0!
01

#101000
0"

#105000
1!
1"!
b0 %
b101010001010011110100110 ,!
0-!
1.!
b1100 /
b10101100 0
10!
11
b0 4
b10000000011100000110 :!
b101010001010011110100110 ;!
b1010100010100111101001100000010000000011100000110 <
0<!
b101010001010011110100110000010000000011100000110 =
1=!
b0 >
b101010000000100010100111000001111010011000000110 @!
b10 B!
0C
b10 C!
0E!
b1010001100000011101000100000001010100001000000011010000000000000 F
1G
1Y
b10100101000001011010010000000100 Z
1a
0b
0h
1j
b10000000011100000110 k
1l
0m
b11 n
b1 p
0r
1t
b101010001010011110100110 u
1v
0w
b11 x
b1 z
b10000000011100000110 |
0}
1~

#106000
1"

#110000
0!
1*
01
16

#111000
0"

#115000
1!
0"!
b101010111010101010101001000010110000101000001001 $
b11 %
b1010001100000011101000100000001010100001000000011010000000000000 (
1)
bx ,!
x-!
0.!
00!
11
b101010111010101010101001000010110000101000001001 3
b11 4
bx :!
b1010101110101010101010010000010110000101000001001 ;
bx ;!
bx <
x<!
bx =
0=!
bx >
bx @!
xC
b100 D!
1F!
0G
0Y
b1010011100000111101001100000011010100101000001011010010000000100 Z
0a
1b
b10110000101000001001 g
1h
0j
bx k
0l
1m
b11 o
b0 p
b101010111010101010101001 q
1r
0t
bx u
0v
1w
b11 y
b0 z
bx |
x}
0~

#116000
1"

#120000
0!
01

#121000
0"

#125000
1!
1"!
b0 %
0)
1,
b101010111010101010101001 ,!
0-!
1.!
b1111 /
b10101111 0
10!
11
b0 4
b10110000101000001001 :!
b101010111010101010101001 ;!
b1010101110101010101010010000010110000101000001001 <
0<!
b101010111010101010101001000010110000101000001001 =
1=!
b0 >
b101010110000101110101010000010101010100100001001 @!
b100 B!
0C
b100 C!
b1010011100000111101001100000011010100101000001011010010000000100 F
0F!
1G
1Y
b1010100000001000 Z
1a
0b
0h
1j
b10110000101000001001 k
1l
0m
b100 n
b1 p
0r
1t
b101010111010101010101001 u
1v
0w
b100 x
b1 z
b10110000101000001001 |
0}
1~

#126000
1"

#130000
0!
01

#131000
0"

#135000
1!
0"!
b101011101010110110101100000011100000110100001100 $
b11 %
b11 '
b1010011100000111101001100000011010100101000001011010010000000100 (
1)
0,
bx ,!
x-!
0.!
00!
11
b101011101010110110101100000011100000110100001100 3
b11 4
b11 5
bx :!
b11010111010101101101011001000011100000110100001100 ;
bx ;!
bx <
x<!
bx =
0=!
bx >
bx @!
xC
b1 D!
0G
1G!
0Y
b1010101100001011101010100000101010101001000010011010100000001000 Z
0a
1b
b1000011100000110100001100 g
1h
0j
bx k
0l
1m
b100 o
b0 p
b1101011101010110110101100 q
1r
0t
bx u
0v
1w
b100 y
b0 z
bx |
x}
0~

#136000
1"

#140000
0!
01

#141000
0"

#145000
1!
1"!
b0 %
b0 '
0)
1,
b101011101010110110101100 ,!
1-!
1.!
10!
11
b0 4
b0 5
b11100000110100001100 :!
b1010111010101101101011000000011100000110100001100 ;
b101011101010110110101100 ;!
b11010111010101101101011001000011100000110100001100 <
1<!
b101011101010110110101100000011100000110100001100 =
1=!
b11 >
b101011100000111010101101000011011010110000001100 @!
b0 B!
1C
b0 C!
b1010101100001011101010100000101010101001000010011010100000001000 F
1G
0G!
1Y
b1010001100000011101000100000001010100001000000011010000000000000 Z
1a
0b
b11100000110100001100 g
0h
1j
b1000011100000110100001100 k
1l
0m
b101 n
b1 p
b101011101010110110101100 q
0r
1t
b1101011101010110110101100 u
1v
0w
b101 x
b1 z
b11100000110100001100 |
1}
1~

#146000
1"

#150000
0!
0*
01
06

#151000
0"

#155000
1!
0"!
b1010101100001011101010100000101010101001000010011010100000001000 (
1)
0,
bx ,!
x-!
0.!
00!
11
bx :!
bx ;!
bx <
x<!
bx =
0=!
bx >
b1 ?!
bx @!
1B
xC
1E!
0G
0Y
b101011100000111010101101000011011010110000001100 Z
0a
1b
0j
bx k
0l
1m
b101 o
b0 p
0t
bx u
0v
1w
b101 y
b0 z
bx |
x}
0~

#156000
1"

#160000
0!
01

#161000
0"

#165000
1!
11
0>!
b0 ?!
0B
0E!
b101011100000111010101101000011011010110000001100 F
1G
1J
0M
0b

#166000
1"

#170000
0!
01

#171000
0"

#175000
1!
11

#176000
1"

#180000
0!
01

#181000
0"

#185000
1!
11

#186000
1"

#190000
0!
1*
01
16
1>!
1M

#191000
0"

#195000
1!
b101011100000111010101101000011011010110000001100 (
1+
1,
11
0G
0J

#196000
1"

#200000
0!
01

#201000
0"

#205000
1!
0)
0+
11

#206000
1"

#210000
0!
0*
01
06

#211000
0"

#215000
1!
0,
11

#216000
1"

#220000
0!
1*
01
16

#221000
0"

#225000
1!
b101100011011000010101111000100010001000000001111 $
b11 %
b10010 /
b10110010 0
11
b101100011011000010101111000100010001000000001111 3
b11 4
b1011000110110000101011110000100010001000000001111 ;
b100010001000000001111 g
1h
b101100011011000010101111 q
1r

#226000
1"

#230000
0!
0*
01
06

#231000
0"

#235000
1!
1"!
b0 %
b101100011011000010101111 ,!
0-!
1.!
b10101 /
b10110101 0
10!
11
b0 4
b100010001000000001111 :!
b101100011011000010101111 ;!
b1011000110110000101011110000100010001000000001111 <
0<!
b101100011011000010101111000100010001000000001111 =
1=!
b0 >
b101100010001000110110000000100001010111100001111 @!
0C
1Y
1a
0h
1j
b100010001000000001111 k
1l
0m
b110 n
b1 p
0r
1t
b101100011011000010101111 u
1v
0w
b110 x
b1 z
b100010001000000001111 |
0}
1~

#236000
1"

#240000
0!
01

#241000
0"

#245000
1!
0"!
b101101001011001110110010000101000001001100010010 $
b11 %
bx ,!
x-!
0.!
00!
11
b101101001011001110110010000101000001001100010010 3
b11 4
bx :!
b1011010010110011101100100000101000001001100010010 ;
bx ;!
bx <
x<!
bx =
0=!
bx >
bx @!
xC
b10 D!
0Y
b101100010001000110110000000100001010111100001111 Z
0a
b101000001001100010010 g
1h
0j
bx k
0l
1m
b110 o
b0 p
b101101001011001110110010 q
1r
0t
bx u
0v
1w
b110 y
b0 z
bx |
x}
0~

#246000
1"

#250000
0!
01

#251000
0"

#255000
1!
1"!
b0 %
b101101001011001110110010 ,!
0-!
1.!
b11000 /
b10111000 0
10!
11
b0 4
b101000001001100010010 :!
b101101001011001110110010 ;!
b1011010010110011101100100000101000001001100010010 <
0<!
b101101001011001110110010000101000001001100010010 =
1=!
b0 >
b101101000001010010110011000100111011001000010010 @!
0C
1Y
1a
0h
1j
b101000001001100010010 k
1l
0m
b111 n
b1 p
0r
1t
b101101001011001110110010 u
1v
0w
b111 x
b1 z
b101000001001100010010 |
0}
1~

#256000
1"

#260000
0!
01

#261000
0"

#265000
1!
0"!
b101101111011011010110101000101110001011000010101 $
b11 %
bx ,!
x-!
0.!
00!
11
b101101111011011010110101000101110001011000010101 3
b11 4
bx :!
b1011011110110110101101010000101110001011000010101 ;
bx ;!
bx <
x<!
bx =
0=!
bx >
bx @!
xC
b11 D!
1E!
0Y
b1011001000010010101100010001000110110000000100001010111100001111 Z
0a
1b
b101110001011000010101 g
1h
0j
bx k
0l
1m
b111 o
b0 p
b101101111011011010110101 q
1r
0t
bx u
0v
1w
b111 y
b0 z
bx |
x}
0~

#266000
1"

#270000
0!
1*
01
16

#271000
0"

#275000
1!
1"!
b0 %
b101101111011011010110101 ,!
0-!
1.!
b11011 /
b10111011 0
10!
11
b0 4
b101110001011000010101 :!
b101101111011011010110101 ;!
b1011011110110110101101010000101110001011000010101 <
0<!
b101101111011011010110101000101110001011000010101 =
1=!
b0 >
b101101110001011110110110000101101011010100010101 @!
b10 B!
0C
b10 C!
0E!
b1011001000010010101100010001000110110000000100001010111100001111 F
1G
1Y
b1010011100000111101001100000011010110100000101001011001100010011 Z
1a
0b
0h
1j
b101110001011000010101 k
1l
0m
b1000 n
b1 p
0r
1t
b101101111011011010110101 u
1v
0w
b1000 x
b1 z
b101110001011000010101 |
0}
1~

#276000
1"

#280000
0!
01

#281000
0"

#285000
1!
0"!
b101110101011100110111000000110100001100100011000 $
b11 %
b1011001000010010101100010001000110110000000100001010111100001111 (
1)
bx ,!
x-!
0.!
00!
11
b101110101011100110111000000110100001100100011000 3
b11 4
bx :!
b1011101010111001101110000000110100001100100011000 ;
bx ;!
bx <
x<!
bx =
0=!
bx >
bx @!
xC
b100 D!
1F!
0G
0Y
b1011011000010110101101010001010110110100000101001011001100010011 Z
0a
1b
b110100001100100011000 g
1h
0j
bx k
0l
1m
b1000 o
b0 p
b101110101011100110111000 q
1r
0t
bx u
0v
1w
b1000 y
b0 z
bx |
x}
0~

#286000
1"

#290000
0!
01

#291000
0"

#295000
1!
1"!
b0 %
0)
1,
b101110101011100110111000 ,!
0-!
1.!
b11110 /
b10111110 0
10!
11
b0 4
b110100001100100011000 :!
b101110101011100110111000 ;!
b1011101010111001101110000000110100001100100011000 <
0<!
b101110101011100110111000000110100001100100011000 =
1=!
b0 >
b101110100001101010111001000110011011100000011000 @!
b100 B!
0C
b100 C!
b1011011000010110101101010001010110110100000101001011001100010011 F
0F!
1G
1Y
b1010101100001011101010100000101010101001000010011011011100010111 Z
1a
0b
0h
1j
b110100001100100011000 k
1l
0m
b1001 n
b1 p
0r
1t
b101110101011100110111000 u
1v
0w
b1001 x
b1 z
b110100001100100011000 |
0}
1~

#296000
1"

#300000
0!
0*
01
06

#301000
0"

#305000
1!
0"!
b101111011011110010111011000111010001110000011011 $
b11 %
b11 '
b1011011000010110101101010001010110110100000101001011001100010011 (
1)
0,
bx ,!
x-!
0.!
00!
11
b101111011011110010111011000111010001110000011011 3
b11 4
b11 5
bx :!
b11011110110111100101110111000111010001110000011011 ;
bx ;!
bx <
x<!
bx =
0=!
bx >
bx @!
xC
b1 D!
0G
1G!
0Y
b1011101000011010101110010001100110111000000110001011011100010111 Z
0a
1b
b1000111010001110000011011 g
1h
0j
bx k
0l
1m
b1001 o
b0 p
b1101111011011110010111011 q
1r
0t
bx u
0v
1w
b1001 y
b0 z
bx |
x}
0~

#306000
1"

#310000
0!
01

#311000
0"

#315000
1!
1"!
b0 %
b0 '
b101111011011110010111011 ,!
1-!
1.!
10!
11
b0 4
b0 5
b111010001110000011011 :!
b1011110110111100101110110000111010001110000011011 ;
b101111011011110010111011 ;!
b11011110110111100101110111000111010001110000011011 <
1<!
b101111011011110010111011000111010001110000011011 =
1=!
b11 >
0>!
b101111010001110110111100000111001011101100011011 @!
b0 B!
1C
b0 C!
b1011101000011010101110010001100110111000000110001011011100010111 F
1G
0G!
0M
1Y
b1011001000010010101100010001000110110000000100001010111100001111 Z
1a
0b
b111010001110000011011 g
0h
1j
b1000111010001110000011011 k
1l
0m
b1010 n
b1 p
b101111011011110010111011 q
0r
1t
b1101111011011110010111011 u
1v
0w
b1010 x
b1 z
b111010001110000011011 |
1}
1~

#316000
1"

#320000
0!
01

#321000
0"

#325000
1!
0"!
bx ,!
x-!
0.!
00!
11
bx :!
bx ;!
bx <
x<!
bx =
0=!
bx >
b1 ?!
bx @!
1B
xC
1E!
0Y
b101111010001110110111100000111001011101100011011 Z
0a
1b
0j
bx k
0l
1m
b1010 o
b0 p
0t
bx u
0v
1w
b1010 y
b0 z
bx |
x}
0~

#326000
1"

#330000
0!
01

#331000
0"

#335000
1!
11

#336000
1"

#340000
0!
01

#341000
0"

#345000
1!
11

#346000
1"

#350000
0!
01

#351000
0"

#355000
1!
11

#356000
1"

#360000
0!
01

#361000
0"

#365000
1!
11

#366000
1"

#370000
0!
01

#371000
0"

#375000
1!
11

#376000
1"

#380000
0!
01

#381000
0"

#385000
1!
11

#386000
1"

#390000
0!
01

#391000
0"

#395000
1!
b110000001011111110111110001000000001111100011110 $
b11 %
b100001 /
b11000001 0
11
b110000001011111110111110001000000001111100011110 3
b11 4
b1100000010111111101111100001000000001111100011110 ;
b1000000001111100011110 g
1h
b110000001011111110111110 q
1r

#396000
1"

#400000
0!
01

#401000
0"

#405000
1!
1"!
b0 %
b110000001011111110111110 ,!
0-!
1.!
b100100 /
b11000100 0
10!
11
b0 4
b1000000001111100011110 :!
b110000001011111110111110 ;!
b1100000010111111101111100001000000001111100011110 <
0<!
b110000001011111110111110001000000001111100011110 =
1=!
b0 >
b110000000010000010111111000111111011111000011110 @!
0C
1Y
1a
0h
1j
b1000000001111100011110 k
1l
0m
b1011 n
b1 p
0r
1t
b110000001011111110111110 u
1v
0w
b1011 x
b1 z
b1000000001111100011110 |
0}
1~

#406000
1"

#410000
0!
1*
01
16
1>!
1M

#411000
0"

#415000
1!
0"!
b110000111100001011000001001000110010001000100001 $
b11 %
b1011101000011010101110010001100110111000000110001011011100010111 (
1,
bx ,!
x-!
0.!
00!
11
b110000111100001011000001001000110010001000100001 3
b11 4
bx :!
b1100001111000010110000010001000110010001000100001 ;
bx ;!
bx <
x<!
bx =
0=!
bx >
b0 ?!
bx @!
0B
xC
0E!
b101111010001110110111100000111001011101100011011 F
1J
0Y
0a
0b
b1000110010001000100001 g
1h
0j
bx k
0l
1m
b1011 o
b0 p
b110000111100001011000001 q
1r
0t
bx u
0v
1w
b1011 y
b0 z
bx |
x}
0~

#416000
1"

#420000
0!
0*
01
06
0>!
0M

#421000
0"

#425000
1!
1"!
b0 %
0,
b110000111100001011000001 ,!
0-!
1.!
b100111 /
b11000111 0
10!
11
b0 4
b1000110010001000100001 :!
b110000111100001011000001 ;!
b1100001111000010110000010001000110010001000100001 <
0<!
b110000111100001011000001001000110010001000100001 =
1=!
b0 >
b110000110010001111000010001000101100000100100001 @!
0C
1Y
1a
0h
1j
b1000110010001000100001 k
1l
0m
b1100 n
b1 p
0r
1t
b110000111100001011000001 u
1v
0w
b1100 x
b1 z
b1000110010001000100001 |
0}
1~

#426000
1"

#430000
0!
01

#431000
0"

#435000
1!
0"!
b110001101100010111000100001001100010010100100100 $
b11 %
bx ,!
x-!
0.!
00!
11
b110001101100010111000100001001100010010100100100 3
b11 4
bx :!
b1100011011000101110001000001001100010010100100100 ;
bx ;!
bx <
x<!
bx =
0=!
bx >
bx @!
xC
b10 D!
0Y
b110000110010001111000010001000101100000100100001 Z
0a
b1001100010010100100100 g
1h
0j
bx k
0l
1m
b1100 o
b0 p
b110001101100010111000100 q
1r
0t
bx u
0v
1w
b1100 y
b0 z
bx |
x}
0~

#436000
1"

#440000
0!
01

#441000
0"

#445000
1!
1"!
b0 %
b110001101100010111000100 ,!
0-!
1.!
b101010 /
b11001010 0
10!
11
b0 4
b1001100010010100100100 :!
b110001101100010111000100 ;!
b1100011011000101110001000001001100010010100100100 <
0<!
b110001101100010111000100001001100010010100100100 =
1=!
b0 >
b110001100010011011000101001001011100010000100100 @!
0C
1Y
1a
0h
1j
b1001100010010100100100 k
1l
0m
b1101 n
b1 p
0r
1t
b110001101100010111000100 u
1v
0w
b1101 x
b1 z
b1001100010010100100100 |
0}
1~

#446000
1"

#450000
0!
01

#451000
0"

#455000
1!
0"!
b110010011100100011000111001010010010100000100111 $
b11 %
bx ,!
x-!
0.!
00!
11
b110010011100100011000111001010010010100000100111 3
b11 4
bx :!
b1100100111001000110001110001010010010100000100111 ;
bx ;!
bx <
x<!
bx =
0=!
bx >
bx @!
xC
b11 D!
1E!
0Y
b1100010000100100110000110010001111000010001000101100000100100001 Z
0a
1b
b1010010010100000100111 g
1h
0j
bx k
0l
1m
b1101 o
b0 p
b110010011100100011000111 q
1r
0t
bx u
0v
1w
b1101 y
b0 z
bx |
x}
0~

#456000
1"

#460000
0!
01

#461000
0"

#465000
1!
1"!
b0 %
b110010011100100011000111 ,!
0-!
1.!
b101101 /
b11001101 0
10!
11
b0 4
b1010010010100000100111 :!
b110010011100100011000111 ;!
b1100100111001000110001110001010010010100000100111 <
0<!
b110010011100100011000111001010010010100000100111 =
1=!
b0 >
b110010010010100111001000001010001100011100100111 @!
0C
1Y
1a
0h
1j
b1010010010100000100111 k
1l
0m
b1110 n
b1 p
0r
1t
b110010011100100011000111 u
1v
0w
b1110 x
b1 z
b1010010010100000100111 |
0}
1~

#466000
1"

#470000
0!
01

#471000
0"

#475000
1!
0"!
b110011001100101111001010001011000010101100101010 $
b11 %
b11 '
bx ,!
x-!
0.!
00!
11
b110011001100101111001010001011000010101100101010 3
b11 4
b11 5
bx :!
b11100110011001011110010101001011000010101100101010 ;
bx ;!
bx <
x<!
bx =
0=!
bx >
bx @!
xC
b100 D!
1F!
0Y
0a
b1001011000010101100101010 g
1h
0j
bx k
0l
1m
b1110 o
b0 p
b1110011001100101111001010 q
1r
0t
bx u
0v
1w
b1110 y
b0 z
bx |
x}
0~

#476000
1"

#480000
0!
01

#481000
0"

#485000
1!
1"!
b0 %
b0 '
b110011001100101111001010 ,!
1-!
1.!
10!
11
b0 4
b0 5
b1011000010101100101010 :!
b1100110011001011110010100001011000010101100101010 ;
b110011001100101111001010 ;!
b11100110011001011110010101001011000010101100101010 <
1<!
b110011001100101111001010001011000010101100101010 =
1=!
b11 >
b110011000010110011001011001010111100101000101010 @!
1C
1Y
1a
b1011000010101100101010 g
0h
1j
b1001011000010101100101010 k
1l
0m
b1111 n
b1 p
b110011001100101111001010 q
0r
1t
b1110011001100101111001010 u
1v
0w
b1111 x
b1 z
b1011000010101100101010 |
1}
1~

#486000
1"

#490000
0!
01

#491000
0"

#495000
1!
0"!
bx ,!
x-!
0.!
00!
11
bx :!
bx ;!
bx <
x<!
bx =
0=!
bx >
b100 ?!
bx @!
xC
b1 D!
1G!
0Y
0a
0j
bx k
0l
1m
b1111 o
b0 p
0t
bx u
0v
1w
b1111 y
b0 z
bx |
x}
0~

#496000
1"

#500000
0!
01

#501000
0"

#505000
1!
11

#506000
1"

#510000
0!
1*
01
16
1>!
1M

#511000
0"

#515000
1!
b101111010001110110111100000111001011101100011011 (
1+
1,
11
b10 B!
b10 C!
0E!
b1100010000100100110000110010001111000010001000101100000100100001 F
0J
b1100100000101000110001110010011111000110001001101100010100100101 Z

#516000
1"

#520000
0!
0*
01
06
0>!
0M

#521000
0"

#525000
1!
0,
11

#526000
1"

#530000
0!
01

#531000
0"

#535000
1!
11

#536000
1"

#540000
0!
1*
01
16
1>!
1M

#541000
0"

#545000
1!
b1100010000100100110000110010001111000010001000101100000100100001 (
0+
1,
11
1B
b100 B!
b100 C!
b1100100000101000110001110010011111000110001001101100010100100101 F
0F!
b1100110000101100110010110010101111001010001010101100100100101001 Z

#546000
1"

#550000
0!
01

#551000
0"

#555000
1!
b1100100000101000110001110010011111000110001001101100010100100101 (
11
b0 ?!
0B
b0 B!
b0 C!
b1100110000101100110010110010101111001010001010101100100100101001 F
0G!
1J
b1100010000100100110000110010001111000010001000101100000100100001 Z
0b

#556000
1"

#560000
0!
01

#561000
0"

