my_assignment.sim/sim_1/behav/xsim/stream_processor_tb.vcd
$date
   Mon Jun 23 19:24:16 2025
$end

$version
  2024.1
  $dumpfile ("stream_processor_tb.vcd") 
$end

$timescale
  1ps
$end

$scope module tb_stream_processor_2 $end
$var reg 1 ! clk $end
$var reg 1 " clk_monitor $end
$var reg 1 # reset_n $end
$var reg 48 $ s_axis_tdata [47:0] $end
$var reg 2 % s_axis_tvalid [1:0] $end
$var reg 2 & s_axis_tready [1:0] $end
$var reg 2 ' s_axis_tlast [1:0] $end
$var reg 64 ( m_axis_tdata [63:0] $end
$var reg 1 ) m_axis_tvalid $end
$var reg 1 * m_axis_tready $end
$var reg 1 + m_axis_tlast $end
$var reg 1 , handshake $end
$var reg 1 - config_mode $end
$var reg 1 . status_packets_size_mismatch $end
$var reg 8 / ch0_data_counter [7:0] $end
$var reg 8 0 ch1_data_counter [7:0] $end
$scope module dut $end
$var wire 1 1 clk $end
$var wire 1 2 reset_n $end
$var wire 48 3 s_axis_tdata [47:0] $end
$var wire 2 4 s_axis_tvalid [1:0] $end
$var reg 2 & s_axis_tready [1:0] $end
$var wire 2 5 s_axis_tlast [1:0] $end
$var reg 64 ( m_axis_tdata [63:0] $end
$var reg 1 ) m_axis_tvalid $end
$var wire 1 6 m_axis_tready $end
$var reg 1 + m_axis_tlast $end
$var wire 1 7 config_mode $end
$var reg 1 . status_packets_size_mismatch $end
$var reg 1 8 start_proces $end
$var reg 1 9 start_proces_1f $end
$var reg 1 : m_axis_tready_next $end
$var reg 1 ; m_axis_tvalid_reg $end
$var reg 1 < m_axis_tlast_reg $end
$var reg 2 = pkt_done_ch [1:0] $end
$var reg 50 > fifo_din [49:0] $end
$var reg 50 ? fifo_dout [49:0] $end
$var reg 3 @ remaining_ptr_a_buf_1 [2:0] $end
$var reg 3 A extra_ptr_b_buf_1 [2:0] $end
$var reg 3 B remaining_ptr_a_buf_2 [2:0] $end
$var reg 3 C extra_ptr_b_buf_2 [2:0] $end
$var reg 48 D fifo_data [47:0] $end
$var reg 2 E fifo_tlast [1:0] $end
$var reg 2 F ch_enable [1:0] $end
$var reg 1 G inter_enable $end
$var reg 2 H m_axis_tlast_sig [1:0] $end
$var reg 1 I inter_buffer_tlast $end
$var reg 1 J m_axis_tlast_both $end
$var reg 2 K reset_init [1:0] $end
$var reg 4 L switch_select $end
$var reg 64 M inter_buffer_data_stage_2 [63:0] $end
$var reg 1 N internal_buffer_valid_inter $end
$var reg 1 O ch0_valid_stage_2 $end
$var reg 1 P ch1_valid_stage_2 $end
$var reg 1 Q inter_buffer_last $end
$var reg 1 R ch0_last_stage_2 $end
$var reg 1 S ch1_last_stage_2 $end
$var reg 1 T internal_buffer_ready_inter $end
$var reg 1 U ch0_ready_stage_0 $end
$var reg 1 V ch1_ready_stage_0 $end
$var reg 1 W ch0_ready_stage_1 $end
$var reg 1 X ch1_ready_stage_1 $end
$var reg 1 Y buffer_valid $end
$var reg 64 Z m_axis_tdata_after_mux [63:0] $end
$var reg 1 [ non_inter_mode_ch_0 $end
$var reg 1 \ non_inter_mode_ch_1 $end
$var reg 1 ] ch0_stop $end
$var reg 1 ^ ch1_stop $end
$var reg 3 _ state $end
$var reg 24 ` fifo_data_out_1 [23:0] $end
$var reg 24 a fifo_data_out_2 [23:0] $end
$var reg 1 b fifo_last $end
$var reg 1 c int_tready $end
$var reg 1 d fifo_rd_intr $end
$var reg 1 e intr_axis_tvalid $end
$var reg 1 f intr_axis_tlast $end
$var reg 1 g intr_reset_init $end
$var reg 1 h load_buffer $end
$var reg 1 i first_data $end
$var reg 64 j inter_buffer_data [63:0] $end
$var reg 64 k m_axis_tdata_reg [63:0] $end
$var reg 1 l ch1_last_stage_1 $end
$var reg 1 m ch0_last_stage_1 $end
$var reg 64 n ch0_data_stage_1 [63:0] $end
$var reg 64 o ch1_data_stage_1 [63:0] $end
$var reg 64 p ch0_data_stage_2 [63:0] $end
$var reg 64 q ch1_data_stage_2 [63:0] $end
$var reg 1 r both_fifo_valid $end
$var reg 1 s inter_buffer_has_data $end
$var reg 1 t ch0_valid_stage_1 $end
$var reg 1 u ch1_valid_stage_1 $end
$var reg 1 v ninter_enable $end
$scope module sync_fifo[0].fifo_inst $end
$var wire 1 1 clk $end
$var wire 1 w reset $end
$var wire 25 x din [24:0] $end
$var wire 1 y wr_en $end
$var reg 1 z full $end
$var wire 1 { rd_en $end
$var reg 25 | dout [24:0] $end
$var reg 1 } valid $end
$var reg 1 ~ empty $end
$var reg 8 !! wr_ptr [7:0] $end
$var reg 8 "! rd_ptr [7:0] $end
$var reg 9 #! count [8:0] $end
$upscope $end
$scope module sync_fifo[1].fifo_inst $end
$var wire 1 1 clk $end
$var wire 1 w reset $end
$var wire 25 $! din [24:0] $end
$var wire 1 %! wr_en $end
$var reg 1 &! full $end
$var wire 1 '! rd_en $end
$var reg 25 (! dout [49:25] $end
$var reg 1 )! valid $end
$var reg 1 *! empty $end
$var reg 8 +! wr_ptr [7:0] $end
$var reg 8 ,! rd_ptr [7:0] $end
$var reg 9 -! count [8:0] $end
$upscope $end
$scope module u_non_inter_machine_1 $end
$var wire 1 1 clk $end
$var wire 1 2 reset_n $end
$var wire 1 .! enable $end
$var wire 24 /! fifo_data [23:0] $end
$var wire 1 0! fifo_tlast $end
$var wire 1 1! fifo_valid $end
$var wire 1 2! inter_buffer_ready $end
$var reg 1 3! fifo_read $end
$var reg 1 t non_inter_buffer_has_data $end
$var reg 1 m non_inter_m_axis_tlast $end
$var reg 3 4! m_axis_tlast_sig [2:0] $end
$var reg 1 5! first_a $end
$var reg 4 6! switch_select $end
$var reg 4 7! STATE_MUX $end
$var reg 4 8! data_wrt_reg_sel $end
$var reg 1 9! buffer_1_has_data $end
$var reg 1 :! buffer_2_has_data $end
$var reg 1 ;! buffer_3_has_data $end
$upscope $end
$scope module u_non_inter_machine_2 $end
$var wire 1 1 clk $end
$var wire 1 2 reset_n $end
$var wire 1 <! enable $end
$var wire 24 =! fifo_data [23:0] $end
$var wire 1 >! fifo_tlast $end
$var wire 1 ?! fifo_valid $end
$var wire 1 @! inter_buffer_ready $end
$var reg 1 A! fifo_read $end
$var reg 1 u non_inter_buffer_has_data $end
$var reg 1 l non_inter_m_axis_tlast $end
$var reg 3 B! m_axis_tlast_sig [2:0] $end
$var reg 1 C! first_a $end
$var reg 4 D! switch_select $end
$var reg 4 E! STATE_MUX $end
$var reg 4 F! data_wrt_reg_sel $end
$var reg 1 G! buffer_1_has_data $end
$var reg 1 H! buffer_2_has_data $end
$var reg 1 I! buffer_3_has_data $end
$upscope $end
$scope module u_inter_machine $end
$var wire 1 1 clk $end
$var wire 1 2 reset_n $end
$var wire 1 J! enable $end
$var wire 24 K! fifo_data_out_1 [23:0] $end
$var wire 24 L! fifo_data_out_2 [23:0] $end
$var wire 1 M! fifo_tlast $end
$var wire 1 N! fifo_valid $end
$var wire 1 O! inter_buffer_ready $end
$var reg 1 d fifo_read $end
$var reg 1 s inter_buffer_has_data $end
$var reg 1 I inter_buffer_tlast $end
$var reg 3 P! m_axis_tlast_sig [2:0] $end
$var reg 48 Q! fifo_data_combine [47:0] $end
$var reg 1 R! first_a $end
$var reg 4 S! switch_select $end
$var reg 4 T! STATE_MUX $end
$var reg 4 U! data_wrt_reg_sel $end
$var reg 1 V! buffer_1_has_data $end
$var reg 1 W! buffer_2_has_data $end
$var reg 1 X! buffer_3_has_data $end
$upscope $end
$upscope $end
$scope task generate_channel_data $end
$upscope $end
$scope task send_beat $end
$upscope $end
$scope task send_packet $end
$upscope $end
$scope task test_basic $end
$upscope $end
$upscope $end
$enddefinitions $end

#0
$dumpvars
0!
bx !!
0"
bx "!
0#
bx #!
b0 $
b0 $!
b0 %
0%!
bx &
x&!
b0 '
x'!
b0 (
bx (!
0)
x)!
1*
x*!
0+
bx +!
x,
bx ,!
1-
bx -!
0.
0.!
b0 /
bx /!
b10100000 0
x0!
01
x1!
02
12!
b0 3
x3!
b0 4
b0 4!
b0 5
05!
16
b0 6!
17
b0 7!
x8
b1 8!
x9
09!
x:
0:!
x;
0;!
x<
0<!
bx =
bx =!
b0 >
x>!
bx ?
x?!
bx @
0@!
bx A
xA!
bx B
b0 B!
bx C
0C!
bx D
b0 D!
bx E
b0 E!
b0 F
b1 F!
0G
0G!
bx H
0H!
0I
0I!
xJ
0J!
bx K
bx K!
bx L
bx L!
b0 M
xM!
0N
xN!
0O
1O!
0P
b0 P!
0Q
bx Q!
0R
0R!
0S
b0 S!
1T
b0 T!
1U
b1 U!
0V
0V!
1W
0W!
1X
0X!
xY
bx Z
1[
0\
0]
0^
b0 _
bx `
bx a
xb
xc
xd
xe
xf
xg
xh
xi
b0 j
bx k
0l
0m
b0 n
b0 o
b0 p
b0 q
xr
0s
0t
0u
0v
1w
b0 x
0y
xz
x{
bx |
x}
x~
$end

#5000
1!
b0 !!
b0 "!
b0 #!
b11 &
0&!
0'!
0)!
1*!
b0 +!
0,
b0 ,!
b0 -!
11
01!
03!
0?!
0A!
0N!
0d
0r
0z
0{
0}
1~

#6000
1"

#10000
0!
01

#11000
0"

#15000
1!
11

#16000
1"

#20000
0!
1#
01
12
0w

#21000
0"

#25000
1!
11
1G
1J!
b11 _

#26000
1"

#30000
0!
01

#31000
0"

#35000
1!
11

#36000
1"

#40000
0!
01

#41000
0"

#45000
1!
11

#46000
1"

#50000
0!
b11 /
b10100011 0
01

#51000
0"

#55000
1!
b101000101010000110100000000000100000000100000000 $
b101000101010000110100000 $!
b11 %
1%!
11
b101000101010000110100000000000100000000100000000 3
b11 4
b1010001010100001101000000000000100000000100000000 >
b100000000100000000 x
1y

#56000
1"

#60000
0!
01

#61000
0"

#65000
1!
b1 !!
b1 #!
b0 %
0%!
1'!
b101000101010000110100000 (!
1)!
0*!
b1 +!
b1 -!
b110 /
b100000000100000000 /!
b10100110 0
00!
11
11!
13!
b0 4
b101000101010000110100000 =!
0>!
b1010001010100001101000000000000100000000100000000 ?
1?!
1A!
b101000101010000110100000000000100000000100000000 D
b0 E
0J
b100000000100000000 K!
b101000101010000110100000 L!
0M!
1N!
b101000100000001010100001000000011010000000000000 Q!
1d
1r
0y
1{
b100000000100000000 |
1}
0~

#66000
1"

#70000
0!
01

#71000
0"

#75000
1!
b1 "!
b0 #!
b101001011010010010100011000001010000010000000011 $
b101001011010010010100011 $!
b11 %
1%!
0'!
bx (!
0)!
1*!
b1 ,!
b0 -!
bx /!
x0!
11
01!
b101001011010010010100011000001010000010000000011 3
03!
b11 4
bx =!
b1010010110100100101000110000001010000010000000011 >
x>!
bx ?
0?!
0A!
bx D
bx E
xJ
bx K!
bx L!
xM!
0N!
bx Q!
b10 U!
0d
b101000100000001010100001000000011010000000000000 j
0r
b1010000010000000011 x
1y
0{
bx |
0}
1~

#76000
1"

#80000
0!
0*
01
06

#81000
0"

#85000
1!
b10 !!
b1 #!
b0 %
0%!
1'!
b101001011010010010100011 (!
1)!
0*!
b10 +!
b1 -!
b1001 /
b1010000010000000011 /!
b10101001 0
00!
11
11!
13!
b0 4
b101001011010010010100011 =!
0>!
b1010010110100100101000110000001010000010000000011 ?
1?!
1A!
b101001011010010010100011000001010000010000000011 D
b0 E
0J
b1010000010000000011 K!
b101001011010010010100011 L!
0M!
1N!
b101001010000010110100100000001001010001100000011 Q!
1d
1r
0y
1{
b1010000010000000011 |
1}
0~

#86000
1"

#90000
0!
01

#91000
0"

#95000
1!
b10 "!
b0 #!
b101010001010011110100110000010000000011100000110 $
b101010001010011110100110 $!
b11 %
1%!
0'!
bx (!
0)!
1*!
b10 ,!
b0 -!
bx /!
x0!
11
01!
b101010001010011110100110000010000000011100000110 3
03!
b11 4
bx =!
b1010100010100111101001100000010000000011100000110 >
x>!
bx ?
0?!
0A!
bx D
bx E
xJ
bx K!
bx L!
xM!
0N!
bx Q!
b11 U!
1V!
0d
b1010001100000011101000100000001010100001000000011010000000000000 j
0r
1s
b10000000011100000110 x
1y
0{
bx |
0}
1~

#96000
1"

#100000
0!
01

#101000
0"

#105000
1!
b11 !!
b1 #!
b0 %
0%!
1'!
b101010001010011110100110 (!
1)!
0*!
b11 +!
b1 -!
b1100 /
b10000000011100000110 /!
b10101100 0
00!
11
11!
13!
b0 4
b101010001010011110100110 =!
0>!
b1010100010100111101001100000010000000011100000110 ?
1?!
1A!
b101010001010011110100110000010000000011100000110 D
b0 E
0J
b10000000011100000110 K!
b101010001010011110100110 L!
b1010001100000011101000100000001010100001000000011010000000000000 M
0M!
1N
1N!
b101010000000100010100111000001111010011000000110 Q!
b10 S!
b10 T!
0V!
1d
b10100101000001011010010000000100 j
1r
0s
0y
1{
b10000000011100000110 |
1}
0~

#106000
1"

#110000
0!
1*
01
16

#111000
0"

#115000
1!
b11 "!
b0 #!
b101010111010101010101001000010110000101000001001 $
b101010111010101010101001 $!
b11 %
1%!
0'!
b1010001100000011101000100000001010100001000000011010000000000000 (
bx (!
1)
0)!
1*!
b11 ,!
b0 -!
bx /!
x0!
11
01!
b101010111010101010101001000010110000101000001001 3
03!
b11 4
bx =!
b1010101110101010101010010000010110000101000001001 >
x>!
bx ?
0?!
0A!
bx D
bx E
xJ
bx K!
bx L!
xM!
0N
0N!
bx Q!
b100 U!
1W!
0d
b1010011100000111101001100000011010100101000001011010010000000100 j
0r
1s
b10110000101000001001 x
1y
0{
bx |
0}
1~

#116000
1"

#120000
0!
01

#121000
0"

#125000
1!
b100 !!
b1 #!
b0 %
0%!
1'!
b101010111010101010101001 (!
0)
1)!
0*!
b100 +!
1,
b1 -!
b1111 /
b10110000101000001001 /!
b10101111 0
00!
11
11!
13!
b0 4
b101010111010101010101001 =!
0>!
b1010101110101010101010010000010110000101000001001 ?
1?!
1A!
b101010111010101010101001000010110000101000001001 D
b0 E
0J
b10110000101000001001 K!
b101010111010101010101001 L!
b1010011100000111101001100000011010100101000001011010010000000100 M
0M!
1N
1N!
b101010110000101110101010000010101010100100001001 Q!
b100 S!
b100 T!
0W!
1d
b1010100000001000 j
1r
0s
0y
1{
b10110000101000001001 |
1}
0~

#126000
1"

#130000
0!
01

#131000
0"

#135000
1!
b100 "!
b0 #!
b101011101010110110101100000011100000110100001100 $
b1101011101010110110101100 $!
b11 %
1%!
b11 '
0'!
b1010011100000111101001100000011010100101000001011010010000000100 (
bx (!
1)
0)!
1*!
0,
b100 ,!
b0 -!
bx /!
x0!
11
01!
b101011101010110110101100000011100000110100001100 3
03!
b11 4
b11 5
bx =!
b11010111010101101101011001000011100000110100001100 >
x>!
bx ?
0?!
0A!
bx D
bx E
xJ
bx K!
bx L!
xM!
0N
0N!
bx Q!
b1 U!
1X!
0d
b1010101100001011101010100000101010101001000010011010100000001000 j
0r
1s
b1000011100000110100001100 x
1y
0{
bx |
0}
1~

#136000
1"

#140000
0!
01

#141000
0"

#145000
1!
b101 !!
b1 #!
b101011101010110110101100 $!
b0 %
0%!
b0 '
1'!
b1101011101010110110101100 (!
0)
1)!
0*!
b101 +!
1,
b1 -!
b11100000110100001100 /!
10!
11
11!
13!
b0 4
b0 5
b101011101010110110101100 =!
b1010111010101101101011000000011100000110100001100 >
1>!
b11010111010101101101011001000011100000110100001100 ?
1?!
1A!
b101011101010110110101100000011100000110100001100 D
b11 E
1J
b11100000110100001100 K!
b101011101010110110101100 L!
b1010101100001011101010100000101010101001000010011010100000001000 M
1M!
1N
1N!
b101011100000111010101101000011011010110000001100 Q!
b0 S!
b0 T!
0X!
1d
b1010001100000011101000100000001010100001000000011010000000000000 j
1r
0s
b11100000110100001100 x
0y
1{
b1000011100000110100001100 |
1}
0~

#146000
1"

#150000
0!
0*
01
06

#151000
0"

#155000
1!
b101 "!
b0 #!
0'!
b1010101100001011101010100000101010101001000010011010100000001000 (
bx (!
1)
0)!
1*!
0,
b101 ,!
b0 -!
bx /!
x0!
11
01!
03!
bx =!
x>!
bx ?
0?!
0A!
bx D
bx E
1I
xJ
bx K!
bx L!
xM!
0N
0N!
b1 P!
bx Q!
1V!
0d
b101011100000111010101101000011011010110000001100 j
0r
1s
0{
bx |
0}
1~

#156000
1"

#160000
0!
01

#161000
0"

#165000
1!
11
0I
b101011100000111010101101000011011010110000001100 M
1N
0O!
b0 P!
1Q
0T
0V!
0s

#166000
1"

#170000
0!
01

#171000
0"

#175000
1!
11

#176000
1"

#180000
0!
01

#181000
0"

#185000
1!
11

#186000
1"

#190000
0!
1*
01
16
1O!
1T

#191000
0"

#195000
1!
b101011100000111010101101000011011010110000001100 (
1+
1,
11
0N
0Q

#196000
1"

#200000
0!
01

#201000
0"

#205000
1!
0)
0+
11

#206000
1"

#210000
0!
0*
01
06

#211000
0"

#215000
1!
0,
11

#216000
1"

#220000
0!
1*
01
16

#221000
0"

#225000
1!
b101100011011000010101111000100010001000000001111 $
b101100011011000010101111 $!
b11 %
1%!
b10010 /
b10110010 0
11
b101100011011000010101111000100010001000000001111 3
b11 4
b1011000110110000101011110000100010001000000001111 >
b100010001000000001111 x
1y

#226000
1"

#230000
0!
0*
01
06

#231000
0"

#235000
1!
b110 !!
b1 #!
b0 %
0%!
1'!
b101100011011000010101111 (!
1)!
0*!
b110 +!
b1 -!
b10101 /
b100010001000000001111 /!
b10110101 0
00!
11
11!
13!
b0 4
b101100011011000010101111 =!
0>!
b1011000110110000101011110000100010001000000001111 ?
1?!
1A!
b101100011011000010101111000100010001000000001111 D
b0 E
0J
b100010001000000001111 K!
b101100011011000010101111 L!
0M!
1N!
b101100010001000110110000000100001010111100001111 Q!
1d
1r
0y
1{
b100010001000000001111 |
1}
0~

#236000
1"

#240000
0!
01

#241000
0"

#245000
1!
b110 "!
b0 #!
b101101001011001110110010000101000001001100010010 $
b101101001011001110110010 $!
b11 %
1%!
0'!
bx (!
0)!
1*!
b110 ,!
b0 -!
bx /!
x0!
11
01!
b101101001011001110110010000101000001001100010010 3
03!
b11 4
bx =!
b1011010010110011101100100000101000001001100010010 >
x>!
bx ?
0?!
0A!
bx D
bx E
xJ
bx K!
bx L!
xM!
0N!
bx Q!
b10 U!
0d
b101100010001000110110000000100001010111100001111 j
0r
b101000001001100010010 x
1y
0{
bx |
0}
1~

#246000
1"

#250000
0!
01

#251000
0"

#255000
1!
b111 !!
b1 #!
b0 %
0%!
1'!
b101101001011001110110010 (!
1)!
0*!
b111 +!
b1 -!
b11000 /
b101000001001100010010 /!
b10111000 0
00!
11
11!
13!
b0 4
b101101001011001110110010 =!
0>!
b1011010010110011101100100000101000001001100010010 ?
1?!
1A!
b101101001011001110110010000101000001001100010010 D
b0 E
0J
b101000001001100010010 K!
b101101001011001110110010 L!
0M!
1N!
b101101000001010010110011000100111011001000010010 Q!
1d
1r
0y
1{
b101000001001100010010 |
1}
0~

#256000
1"

#260000
0!
01

#261000
0"

#265000
1!
b111 "!
b0 #!
b101101111011011010110101000101110001011000010101 $
b101101111011011010110101 $!
b11 %
1%!
0'!
bx (!
0)!
1*!
b111 ,!
b0 -!
bx /!
x0!
11
01!
b101101111011011010110101000101110001011000010101 3
03!
b11 4
bx =!
b1011011110110110101101010000101110001011000010101 >
x>!
bx ?
0?!
0A!
bx D
bx E
xJ
bx K!
bx L!
xM!
0N!
bx Q!
b11 U!
1V!
0d
b1011001000010010101100010001000110110000000100001010111100001111 j
0r
1s
b101110001011000010101 x
1y
0{
bx |
0}
1~

#266000
1"

#270000
0!
1*
01
16

#271000
0"

#275000
1!
b1000 !!
b1 #!
b0 %
0%!
1'!
b101101111011011010110101 (!
1)!
0*!
b1000 +!
b1 -!
b11011 /
b101110001011000010101 /!
b10111011 0
00!
11
11!
13!
b0 4
b101101111011011010110101 =!
0>!
b1011011110110110101101010000101110001011000010101 ?
1?!
1A!
b101101111011011010110101000101110001011000010101 D
b0 E
0J
b101110001011000010101 K!
b101101111011011010110101 L!
b1011001000010010101100010001000110110000000100001010111100001111 M
0M!
1N
1N!
b101101110001011110110110000101101011010100010101 Q!
b10 S!
b10 T!
0V!
1d
b1010011100000111101001100000011010110100000101001011001100010011 j
1r
0s
0y
1{
b101110001011000010101 |
1}
0~

#276000
1"

#280000
0!
01

#281000
0"

#285000
1!
b1000 "!
b0 #!
b101110101011100110111000000110100001100100011000 $
b101110101011100110111000 $!
b11 %
1%!
0'!
b1011001000010010101100010001000110110000000100001010111100001111 (
bx (!
1)
0)!
1*!
b1000 ,!
b0 -!
bx /!
x0!
11
01!
b101110101011100110111000000110100001100100011000 3
03!
b11 4
bx =!
b1011101010111001101110000000110100001100100011000 >
x>!
bx ?
0?!
0A!
bx D
bx E
xJ
bx K!
bx L!
xM!
0N
0N!
bx Q!
b100 U!
1W!
0d
b1011011000010110101101010001010110110100000101001011001100010011 j
0r
1s
b110100001100100011000 x
1y
0{
bx |
0}
1~

#286000
1"

#290000
0!
01

#291000
0"

#295000
1!
b1001 !!
b1 #!
b0 %
0%!
1'!
b101110101011100110111000 (!
0)
1)!
0*!
b1001 +!
1,
b1 -!
b11110 /
b110100001100100011000 /!
b10111110 0
00!
11
11!
13!
b0 4
b101110101011100110111000 =!
0>!
b1011101010111001101110000000110100001100100011000 ?
1?!
1A!
b101110101011100110111000000110100001100100011000 D
b0 E
0J
b110100001100100011000 K!
b101110101011100110111000 L!
b1011011000010110101101010001010110110100000101001011001100010011 M
0M!
1N
1N!
b101110100001101010111001000110011011100000011000 Q!
b100 S!
b100 T!
0W!
1d
b1010101100001011101010100000101010101001000010011011011100010111 j
1r
0s
0y
1{
b110100001100100011000 |
1}
0~

#296000
1"

#300000
0!
0*
01
06

#301000
0"

#305000
1!
b1001 "!
b0 #!
b101111011011110010111011000111010001110000011011 $
b1101111011011110010111011 $!
b11 %
1%!
b11 '
0'!
b1011011000010110101101010001010110110100000101001011001100010011 (
bx (!
1)
0)!
1*!
0,
b1001 ,!
b0 -!
bx /!
x0!
11
01!
b101111011011110010111011000111010001110000011011 3
03!
b11 4
b11 5
bx =!
b11011110110111100101110111000111010001110000011011 >
x>!
bx ?
0?!
0A!
bx D
bx E
xJ
bx K!
bx L!
xM!
0N
0N!
bx Q!
b1 U!
1X!
0d
b1011101000011010101110010001100110111000000110001011011100010111 j
0r
1s
b1000111010001110000011011 x
1y
0{
bx |
0}
1~

#306000
1"

#310000
0!
01

#311000
0"

#315000
1!
b1010 !!
b1 #!
b101111011011110010111011 $!
b0 %
0%!
b0 '
1'!
b1101111011011110010111011 (!
1)!
0*!
b1010 +!
b1 -!
b111010001110000011011 /!
10!
11
11!
13!
b0 4
b0 5
b101111011011110010111011 =!
b1011110110111100101110110000111010001110000011011 >
1>!
b11011110110111100101110111000111010001110000011011 ?
1?!
1A!
b101111011011110010111011000111010001110000011011 D
b11 E
1J
b111010001110000011011 K!
b101111011011110010111011 L!
b1011101000011010101110010001100110111000000110001011011100010111 M
1M!
1N
1N!
0O!
b101111010001110110111100000111001011101100011011 Q!
b0 S!
0T
b0 T!
0X!
1d
b1011001000010010101100010001000110110000000100001010111100001111 j
1r
0s
b111010001110000011011 x
0y
1{
b1000111010001110000011011 |
1}
0~

#316000
1"

#320000
0!
01

#321000
0"

#325000
1!
b1010 "!
b0 #!
0'!
bx (!
0)!
1*!
b1010 ,!
b0 -!
bx /!
x0!
11
01!
03!
bx =!
x>!
bx ?
0?!
0A!
bx D
bx E
1I
xJ
bx K!
bx L!
xM!
0N!
b1 P!
bx Q!
1V!
0d
b101111010001110110111100000111001011101100011011 j
0r
1s
0{
bx |
0}
1~

#326000
1"

#330000
0!
01

#331000
0"

#335000
1!
11

#336000
1"

#340000
0!
01

#341000
0"

#345000
1!
11

#346000
1"

#350000
0!
01

#351000
0"

#355000
1!
11

#356000
1"

#360000
0!
01

#361000
0"

#365000
1!
11

#366000
1"

#370000
0!
01

#371000
0"

#375000
1!
11

#376000
1"

#380000
0!
01

#381000
0"

#385000
1!
11

#386000
1"

#390000
0!
01

#391000
0"

#395000
1!
b110000001011111110111110001000000001111100011110 $
b110000001011111110111110 $!
b11 %
1%!
b100001 /
b11000001 0
11
b110000001011111110111110001000000001111100011110 3
b11 4
b1100000010111111101111100001000000001111100011110 >
b1000000001111100011110 x
1y

#396000
1"

#400000
0!
01

#401000
0"

#405000
1!
b1011 !!
b1 #!
b0 %
0%!
1'!
b110000001011111110111110 (!
1)!
0*!
b1011 +!
b1 -!
b100100 /
b1000000001111100011110 /!
b11000100 0
00!
11
11!
13!
b0 4
b110000001011111110111110 =!
0>!
b1100000010111111101111100001000000001111100011110 ?
1?!
1A!
b110000001011111110111110001000000001111100011110 D
b0 E
0J
b1000000001111100011110 K!
b110000001011111110111110 L!
0M!
1N!
b110000000010000010111111000111111011111000011110 Q!
1d
1r
0y
1{
b1000000001111100011110 |
1}
0~

#406000
1"

#410000
0!
1*
01
16
1O!
1T

#411000
0"

#415000
1!
b1011 "!
b0 #!
b110000111100001011000001001000110010001000100001 $
b110000111100001011000001 $!
b11 %
1%!
0'!
b1011101000011010101110010001100110111000000110001011011100010111 (
bx (!
0)!
1*!
1,
b1011 ,!
b0 -!
bx /!
x0!
11
01!
b110000111100001011000001001000110010001000100001 3
03!
b11 4
bx =!
b1100001111000010110000010001000110010001000100001 >
x>!
bx ?
0?!
0A!
bx D
bx E
0I
xJ
bx K!
bx L!
b101111010001110110111100000111001011101100011011 M
xM!
0N!
b0 P!
1Q
bx Q!
0V!
0d
0r
0s
b1000110010001000100001 x
1y
0{
bx |
0}
1~

#416000
1"

#420000
0!
0*
01
06
0O!
0T

#421000
0"

#425000
1!
b1100 !!
b1 #!
b0 %
0%!
1'!
b110000111100001011000001 (!
1)!
0*!
b1100 +!
0,
b1 -!
b100111 /
b1000110010001000100001 /!
b11000111 0
00!
11
11!
13!
b0 4
b110000111100001011000001 =!
0>!
b1100001111000010110000010001000110010001000100001 ?
1?!
1A!
b110000111100001011000001001000110010001000100001 D
b0 E
0J
b1000110010001000100001 K!
b110000111100001011000001 L!
0M!
1N!
b110000110010001111000010001000101100000100100001 Q!
1d
1r
0y
1{
b1000110010001000100001 |
1}
0~

#426000
1"

#430000
0!
01

#431000
0"

#435000
1!
b1100 "!
b0 #!
b110001101100010111000100001001100010010100100100 $
b110001101100010111000100 $!
b11 %
1%!
0'!
bx (!
0)!
1*!
b1100 ,!
b0 -!
bx /!
x0!
11
01!
b110001101100010111000100001001100010010100100100 3
03!
b11 4
bx =!
b1100011011000101110001000001001100010010100100100 >
x>!
bx ?
0?!
0A!
bx D
bx E
xJ
bx K!
bx L!
xM!
0N!
bx Q!
b10 U!
0d
b110000110010001111000010001000101100000100100001 j
0r
b1001100010010100100100 x
1y
0{
bx |
0}
1~

#436000
1"

#440000
0!
01

#441000
0"

#445000
1!
b1101 !!
b1 #!
b0 %
0%!
1'!
b110001101100010111000100 (!
1)!
0*!
b1101 +!
b1 -!
b101010 /
b1001100010010100100100 /!
b11001010 0
00!
11
11!
13!
b0 4
b110001101100010111000100 =!
0>!
b1100011011000101110001000001001100010010100100100 ?
1?!
1A!
b110001101100010111000100001001100010010100100100 D
b0 E
0J
b1001100010010100100100 K!
b110001101100010111000100 L!
0M!
1N!
b110001100010011011000101001001011100010000100100 Q!
1d
1r
0y
1{
b1001100010010100100100 |
1}
0~

#446000
1"

#450000
0!
01

#451000
0"

#455000
1!
b1101 "!
b0 #!
b110010011100100011000111001010010010100000100111 $
b110010011100100011000111 $!
b11 %
1%!
0'!
bx (!
0)!
1*!
b1101 ,!
b0 -!
bx /!
x0!
11
01!
b110010011100100011000111001010010010100000100111 3
03!
b11 4
bx =!
b1100100111001000110001110001010010010100000100111 >
x>!
bx ?
0?!
0A!
bx D
bx E
xJ
bx K!
bx L!
xM!
0N!
bx Q!
b11 U!
1V!
0d
b1100010000100100110000110010001111000010001000101100000100100001 j
0r
1s
b1010010010100000100111 x
1y
0{
bx |
0}
1~

#456000
1"

#460000
0!
01

#461000
0"

#465000
1!
b1110 !!
b1 #!
b0 %
0%!
1'!
b110010011100100011000111 (!
1)!
0*!
b1110 +!
b1 -!
b101101 /
b1010010010100000100111 /!
b11001101 0
00!
11
11!
13!
b0 4
b110010011100100011000111 =!
0>!
b1100100111001000110001110001010010010100000100111 ?
1?!
1A!
b110010011100100011000111001010010010100000100111 D
b0 E
0J
b1010010010100000100111 K!
b110010011100100011000111 L!
0M!
1N!
b110010010010100111001000001010001100011100100111 Q!
1d
1r
0y
1{
b1010010010100000100111 |
1}
0~

#466000
1"

#470000
0!
01

#471000
0"

#475000
1!
b1110 "!
b0 #!
b110011001100101111001010001011000010101100101010 $
b1110011001100101111001010 $!
b11 %
1%!
b11 '
0'!
bx (!
0)!
1*!
b1110 ,!
b0 -!
bx /!
x0!
11
01!
b110011001100101111001010001011000010101100101010 3
03!
b11 4
b11 5
bx =!
b11100110011001011110010101001011000010101100101010 >
x>!
bx ?
0?!
0A!
bx D
bx E
xJ
bx K!
bx L!
xM!
0N!
bx Q!
b100 U!
1W!
0d
0r
b1001011000010101100101010 x
1y
0{
bx |
0}
1~

#476000
1"

#480000
0!
01

#481000
0"

#485000
1!
b1111 !!
b1 #!
b110011001100101111001010 $!
b0 %
0%!
b0 '
1'!
b1110011001100101111001010 (!
1)!
0*!
b1111 +!
b1 -!
b1011000010101100101010 /!
10!
11
11!
13!
b0 4
b0 5
b110011001100101111001010 =!
b1100110011001011110010100001011000010101100101010 >
1>!
b11100110011001011110010101001011000010101100101010 ?
1?!
1A!
b110011001100101111001010001011000010101100101010 D
b11 E
1J
b1011000010101100101010 K!
b110011001100101111001010 L!
1M!
1N!
b110011000010110011001011001010111100101000101010 Q!
1d
1r
b1011000010101100101010 x
0y
1{
b1001011000010101100101010 |
1}
0~

#486000
1"

#490000
0!
01

#491000
0"

