my_assignment.sim/sim_1/behav/xsim/stream_processor_tb.vcd
$date
   Sun Jun 22 09:30:09 2025
$end

$version
  2024.1
  $dumpfile ("stream_processor_tb.vcd") 
$end

$timescale
  1ps
$end

$scope module tb_stream_processor_2 $end
$var reg 1 ! clk $end
$var reg 1 " clk_monitor $end
$var reg 1 # reset_n $end
$var reg 48 $ s_axis_tdata [47:0] $end
$var reg 2 % s_axis_tvalid [1:0] $end
$var reg 2 & s_axis_tready [1:0] $end
$var reg 2 ' s_axis_tlast [1:0] $end
$var reg 64 ( m_axis_tdata [63:0] $end
$var reg 1 ) m_axis_tvalid $end
$var reg 1 * m_axis_tready $end
$var reg 1 + m_axis_tlast $end
$var reg 1 , config_mode $end
$var reg 1 - status_packets_size_mismatch $end
$var reg 8 . ch0_data_counter [7:0] $end
$var reg 8 / ch1_data_counter [7:0] $end
$scope module dut $end
$var wire 1 0 clk $end
$var wire 1 1 reset_n $end
$var wire 48 2 s_axis_tdata [47:0] $end
$var wire 2 3 s_axis_tvalid [1:0] $end
$var reg 2 & s_axis_tready [1:0] $end
$var wire 2 4 s_axis_tlast [1:0] $end
$var reg 64 ( m_axis_tdata [63:0] $end
$var reg 1 ) m_axis_tvalid $end
$var wire 1 5 m_axis_tready $end
$var reg 1 + m_axis_tlast $end
$var wire 1 6 config_mode $end
$var reg 1 - status_packets_size_mismatch $end
$var reg 1 7 start_proces $end
$var reg 1 8 start_proces_1f $end
$var reg 1 9 m_axis_tready_next $end
$var reg 1 : both_empty $end
$var reg 1 ; m_axis_tvalid_reg $end
$var reg 2 < back_pressure [1:0] $end
$var reg 50 = fifo_din [49:0] $end
$var reg 50 > fifo_dout [49:0] $end
$var reg 3 ? remaining_ptr_a_buf_1 [2:0] $end
$var reg 3 @ extra_ptr_b_buf_1 [2:0] $end
$var reg 3 A remaining_ptr_a_buf_2 [2:0] $end
$var reg 3 B extra_ptr_b_buf_2 [2:0] $end
$var reg 48 C fifo_data_out [47:0] $end
$var reg 2 D fifo_last_out [1:0] $end
$var reg 2 E s_rst_n [1:0] $end
$var reg 2 F ch_enable [1:0] $end
$var reg 3 G m_axis_tlast_sig [2:0] $end
$var reg 1 H inter_m_axis_tlast $end
$var reg 1 I m_axis_tlast_both $end
$var reg 2 J reset_init [1:0] $end
$var reg 2 K data_valid [1:0] $end
$var reg 1 L axi_out_mux $end
$var reg 64 M m_axis_tdata_after_mux [63:0] $end
$var reg 3 N state $end
$var reg 24 O fifo_data_out_1 [23:0] $end
$var reg 24 P fifo_data_out_2 [23:0] $end
$var reg 1 Q fifo_last $end
$var reg 1 R int_tready $end
$var reg 1 S fifo_rd_intr $end
$var reg 1 T intr_axis_tvalid $end
$var reg 1 U intr_axis_tlast $end
$var reg 1 V intr_reset_init $end
$var reg 1 W load_buffer $end
$var reg 1 X first_data $end
$var reg 64 Y m_axis_tdata_sig [63:0] $end
$var reg 1 Z both_fifo_valid $end
$var reg 1 [ inter_buffer_has_data $end
$var reg 4 \ switch_select $end
$scope module sync_fifo[0].fifo_inst $end
$var wire 1 0 clk $end
$var wire 1 ] reset $end
$var wire 25 ^ din [24:0] $end
$var wire 1 _ wr_en $end
$var reg 1 ` full $end
$var wire 1 a rd_en $end
$var reg 25 b dout [24:0] $end
$var reg 1 c valid $end
$var reg 1 d empty $end
$var reg 8 e wr_ptr [7:0] $end
$var reg 8 f rd_ptr [7:0] $end
$var reg 9 g count [8:0] $end
$upscope $end
$scope module sync_fifo[1].fifo_inst $end
$var wire 1 0 clk $end
$var wire 1 ] reset $end
$var wire 25 h din [24:0] $end
$var wire 1 i wr_en $end
$var reg 1 j full $end
$var wire 1 k rd_en $end
$var reg 25 l dout [49:25] $end
$var reg 1 m valid $end
$var reg 1 n empty $end
$var reg 8 o wr_ptr [7:0] $end
$var reg 8 p rd_ptr [7:0] $end
$var reg 9 q count [8:0] $end
$upscope $end
$scope module u_non_inter_machine_1 $end
$var wire 1 0 clk $end
$var wire 1 r reset_n $end
$var wire 24 s fifo_data_out [23:0] $end
$var wire 1 t fifo_last_out $end
$var wire 1 u m_axis_tready $end
$var wire 1 v start_proces $end
$var reg 1 w fifo_rd $end
$var reg 1 x m_axis_tvalid $end
$var reg 1 y m_axis_tlast $end
$var reg 1 z reset_init $end
$var reg 3 { switch_select [2:0] $end
$var reg 3 | remaining_ptr_a_buf_1 [2:0] $end
$var reg 3 } extra_ptr_b_buf_1 [2:0] $end
$var reg 3 ~ remaining_ptr_a_buf_2 [2:0] $end
$var reg 3 !! extra_ptr_b_buf_2 [2:0] $end
$var reg 6 "! write_ptr_a [5:0] $end
$var reg 6 #! write_ptr_b [5:0] $end
$var reg 1 $! buffer_switch $end
$var reg 1 %! fifo_rd_reg_1 $end
$var reg 1 &! m_axis_tvalid_reg $end
$var reg 1 '! start_proces_reg $end
$var reg 2 (! switch_select_reg [1:0] $end
$var reg 1 )! m_axis_tlast_reg $end
$var reg 1 *! extr_data $end
$scope begin Block81_9 $end
$var reg 32 +! i [31:0] $end
$upscope $end
$scope begin Block112_10 $end
$var reg 32 ,! i [31:0] $end
$upscope $end
$scope begin Block116_11 $end
$var reg 32 -! i [31:0] $end
$upscope $end
$scope begin Block121_12 $end
$var reg 32 .! i [31:0] $end
$upscope $end
$scope begin Block125_13 $end
$var reg 32 /! i [31:0] $end
$upscope $end
$scope begin Block130_14 $end
$var reg 32 0! i [31:0] $end
$upscope $end
$scope begin Block163_15 $end
$var reg 32 1! i [31:0] $end
$upscope $end
$scope begin Block167_16 $end
$var reg 32 2! i [31:0] $end
$upscope $end
$scope begin Block172_17 $end
$var reg 32 3! i [31:0] $end
$upscope $end
$scope begin Block176_18 $end
$var reg 32 4! i [31:0] $end
$upscope $end
$scope begin Block182_19 $end
$var reg 32 5! i [31:0] $end
$upscope $end
$scope begin Block192_20 $end
$var reg 32 6! i [31:0] $end
$upscope $end
$scope begin Block196_21 $end
$var reg 32 7! i [31:0] $end
$upscope $end
$scope begin Block201_22 $end
$var reg 32 8! i [31:0] $end
$upscope $end
$scope begin Block205_23 $end
$var reg 32 9! i [31:0] $end
$upscope $end
$scope begin Block215_24 $end
$var reg 32 :! i [31:0] $end
$upscope $end
$scope begin Block248_25 $end
$var reg 32 ;! i [31:0] $end
$upscope $end
$scope begin Block252_26 $end
$var reg 32 <! i [31:0] $end
$upscope $end
$scope begin Block257_27 $end
$var reg 32 =! i [31:0] $end
$upscope $end
$scope begin Block261_28 $end
$var reg 32 >! i [31:0] $end
$upscope $end
$scope begin Block267_29 $end
$var reg 32 ?! i [31:0] $end
$upscope $end
$upscope $end
$scope module u_non_inter_machine_2 $end
$var wire 1 0 clk $end
$var wire 1 @! reset_n $end
$var wire 24 A! fifo_data_out [23:0] $end
$var wire 1 B! fifo_last_out $end
$var wire 1 C! m_axis_tready $end
$var wire 1 D! start_proces $end
$var reg 1 E! fifo_rd $end
$var reg 1 F! m_axis_tvalid $end
$var reg 1 G! m_axis_tlast $end
$var reg 1 H! reset_init $end
$var reg 3 I! switch_select [2:0] $end
$var reg 3 J! remaining_ptr_a_buf_1 [2:0] $end
$var reg 3 K! extra_ptr_b_buf_1 [2:0] $end
$var reg 3 L! remaining_ptr_a_buf_2 [2:0] $end
$var reg 3 M! extra_ptr_b_buf_2 [2:0] $end
$var reg 6 N! write_ptr_a [5:0] $end
$var reg 6 O! write_ptr_b [5:0] $end
$var reg 1 P! buffer_switch $end
$var reg 1 Q! fifo_rd_reg_1 $end
$var reg 1 R! m_axis_tvalid_reg $end
$var reg 1 S! start_proces_reg $end
$var reg 2 T! switch_select_reg [1:0] $end
$var reg 1 U! m_axis_tlast_reg $end
$var reg 1 V! extr_data $end
$scope begin Block81_9 $end
$var reg 32 W! i [31:0] $end
$upscope $end
$scope begin Block112_10 $end
$var reg 32 X! i [31:0] $end
$upscope $end
$scope begin Block116_11 $end
$var reg 32 Y! i [31:0] $end
$upscope $end
$scope begin Block121_12 $end
$var reg 32 Z! i [31:0] $end
$upscope $end
$scope begin Block125_13 $end
$var reg 32 [! i [31:0] $end
$upscope $end
$scope begin Block130_14 $end
$var reg 32 \! i [31:0] $end
$upscope $end
$scope begin Block163_15 $end
$var reg 32 ]! i [31:0] $end
$upscope $end
$scope begin Block167_16 $end
$var reg 32 ^! i [31:0] $end
$upscope $end
$scope begin Block172_17 $end
$var reg 32 _! i [31:0] $end
$upscope $end
$scope begin Block176_18 $end
$var reg 32 `! i [31:0] $end
$upscope $end
$scope begin Block182_19 $end
$var reg 32 a! i [31:0] $end
$upscope $end
$scope begin Block192_20 $end
$var reg 32 b! i [31:0] $end
$upscope $end
$scope begin Block196_21 $end
$var reg 32 c! i [31:0] $end
$upscope $end
$scope begin Block201_22 $end
$var reg 32 d! i [31:0] $end
$upscope $end
$scope begin Block205_23 $end
$var reg 32 e! i [31:0] $end
$upscope $end
$scope begin Block215_24 $end
$var reg 32 f! i [31:0] $end
$upscope $end
$scope begin Block248_25 $end
$var reg 32 g! i [31:0] $end
$upscope $end
$scope begin Block252_26 $end
$var reg 32 h! i [31:0] $end
$upscope $end
$scope begin Block257_27 $end
$var reg 32 i! i [31:0] $end
$upscope $end
$scope begin Block261_28 $end
$var reg 32 j! i [31:0] $end
$upscope $end
$scope begin Block267_29 $end
$var reg 32 k! i [31:0] $end
$upscope $end
$upscope $end
$scope module u_inter_machine $end
$var wire 1 0 clk $end
$var wire 1 1 reset_n $end
$var wire 24 l! fifo_data_out_1 [23:0] $end
$var wire 24 m! fifo_data_out_2 [23:0] $end
$var wire 1 n! fifo_tlast $end
$var wire 1 5 inter_m_axis_tready $end
$var wire 1 o! fifo_valid $end
$var wire 1 ) inter_m_axis_tvalid $end
$var reg 1 S fifo_read $end
$var reg 1 [ inter_buffer_has_data $end
$var reg 1 H inter_m_axis_tlast $end
$var reg 3 p! m_axis_tlast_sig [2:0] $end
$var reg 48 q! fifo_data_combine [47:0] $end
$var reg 1 r! first_a $end
$var reg 4 s! switch_select $end
$var reg 4 t! STATE_MUX $end
$var reg 4 u! data_wrt_reg_sel $end
$var reg 1 v! buffer_1_has_data $end
$var reg 1 w! buffer_2_has_data $end
$var reg 1 x! buffer_3_has_data $end
$var reg 1 y! count $end
$upscope $end
$upscope $end
$scope task generate_channel_data $end
$upscope $end
$scope task send_beat $end
$upscope $end
$scope task send_packet $end
$upscope $end
$scope task test_basic $end
$upscope $end
$upscope $end
$enddefinitions $end

#0
$dumpvars
0!
b11 !!
0"
b0 "!
0#
b0 #!
b0 $
0$!
b0 %
0%!
bx &
0&!
b0 '
0'!
b0 (
b0 (!
0)
0)!
1*
0*!
0+
b0 +!
0,
b0 ,!
0-
b0 -!
b10100000 .
b0 .!
b10100000 /
b0 /!
00
b0 0!
01
b0 1!
b0 2
b0 2!
b0 3
b0 3!
b0 4
b0 4!
15
b0 5!
06
b0 6!
x7
b0 7!
x8
b0 8!
x9
b0 9!
x:
b0 :!
x;
b0 ;!
b0 <
b0 <!
b0 =
b0 =!
bx >
b0 >!
bx ?
b0 ?!
bx @
0@!
bx A
bx A!
bx B
xB!
bx C
0C!
bx D
0D!
b0 E
0E!
b0 F
0F!
bx00 G
0G!
0H
0H!
xI
b0 I!
b0 J
b0 J!
b0 K
b11 K!
0L
b0 L!
bx M
b11 M!
b0 N
b0 N!
bx O
b0 O!
bx P
0P!
xQ
0Q!
xR
0R!
xS
0S!
xT
b0 T!
xU
0U!
xV
0V!
xW
b0 W!
xX
b0 X!
b0 Y
b0 Y!
xZ
b0 Z!
0[
b0 [!
bx00 \
b0 \!
1]
b0 ]!
b0 ^
b0 ^!
0_
b0 _!
x`
b0 `!
xa
b0 a!
bx b
b0 b!
xc
b0 c!
xd
b0 d!
bx e
b0 e!
bx f
b0 f!
bx g
b0 g!
b0 h
b0 h!
0i
b0 i!
xj
b0 j!
xk
b0 k!
bx l
bx l!
xm
bx m!
xn
xn!
bx o
xo!
bx p
b0 p!
bx q
bx q!
0r
0r!
bx s
b0 s!
xt
b0 t!
0u
b1 u!
0v
0v!
0w
0w!
0x
0x!
0y
0y!
0z
b0 {
b0 |
b11 }
b0 ~
$end

#5000
1!
b11 &
10
1:
0S
0Z
0`
0a
0c
1d
b0 e
b0 f
b0 g
0j
0k
0m
1n
b0 o
0o!
b0 p
b0 q

#6000
1"

#10000
0!
00

#11000
0"

#15000
1!
10

#16000
1"

#20000
0!
1#
00
11
0]

#21000
0"

#25000
1!
10
b1 E
b10 N
1r

#26000
1"

#30000
0!
00

#31000
0"

#35000
1!
10

#36000
1"

#40000
0!
00

#41000
0"

#42000
0*
05

#45000
1!
10

#46000
1"

#50000
0!
b10100011 .
b10100011 /
00

#51000
0"

#55000
1!
b101000101010000110100000101000101010000110100000 $
b11 %
10
b101000101010000110100000101000101010000110100000 2
b11 3
b1010001010100001101000000101000101010000110100000 =
b101000101010000110100000 ^
1_
b101000101010000110100000 h
1i

#56000
1"

#60000
0!
00

#61000
0"

#65000
1!
b0 %
b10100110 .
b10100110 /
10
b0 3
0:
b1010001010100001101000000101000101010000110100000 >
b101000101010000110100000 A!
0B!
b101000101010000110100000101000101010000110100000 C
b0 D
0I
1S
1Z
0_
1a
b101000101010000110100000 b
1c
0d
b1 e
b1 g
0i
1k
b101000101010000110100000 l
b101000101010000110100000 l!
1m
b101000101010000110100000 m!
0n
0n!
b1 o
1o!
b1 q
b101000101010001010100001101000011010000010100000 q!
b101000101010000110100000 s
0t

#66000
1"

#70000
0!
00

#71000
0"

#75000
1!
b101001011010010010100011101001011010010010100011 $
b11 %
10
b101001011010010010100011101001011010010010100011 2
b11 3
1:
b1010010110100100101000110101001011010010010100011 =
bx >
bx A!
xB!
bx C
bx D
b1 F
xI
0S
b101000101010001010100001101000011010000010100000 Y
0Z
b101001011010010010100011 ^
1_
0a
bx b
0c
1d
b1 f
b0 g
b101001011010010010100011 h
1i
0k
bx l
bx l!
0m
bx m!
1n
xn!
0o!
b1 p
b0 q
bx q!
bx s
xt
b10 u!
1v

#76000
1"

#80000
0!
00

#81000
0"

#85000
1!
b0 %
1'!
b10101001 .
b10101001 /
10
b0 3
0:
b1010010110100100101000110101001011010010010100011 >
b101001011010010010100011 A!
0B!
b101001011010010010100011101001011010010010100011 C
b0 D
b0 F
0I
1S
1Z
0_
1a
b101001011010010010100011 b
1c
0d
b10 e
b1 g
0i
1k
b101001011010010010100011 l
b101001011010010010100011 l!
1m
b101001011010010010100011 m!
0n
0n!
b10 o
1o!
b1 q
b101001011010010110100100101001001010001110100011 q!
b101001011010010010100011 s
0t
0v
1w

#86000
1"

#90000
0!
00

#91000
0"

#95000
1!
b110 !!
b11 "!
b101010001010011110100110101010001010011110100110 $
b11 %
1%!
10
b101010001010011110100110101010001010011110100110 2
b11 3
1:
b11 :!
b1010100010100111101001100101010001010011110100110 =
bx >
bx A!
xB!
bx C
bx D
b1 F
xI
0S
b1010001110100011101000101010001010100001101000011010000010100000 Y
0Z
1[
b101010001010011110100110 ^
1_
0a
bx b
0c
1d
b10 f
b0 g
b101010001010011110100110 h
1i
0k
bx l
bx l!
0m
bx m!
1n
xn!
0o!
b10 p
b0 q
bx q!
bx s
xt
b11 u!
1v
1v!
b101 |

#96000
1"

#100000
0!
00

#101000
0"

#105000
1!
b0 %
b1010001110100011101000101010001010100001101000011010000010100000 (
1)
b10101100 .
b10101100 /
10
b0 3
0:
b1010100010100111101001100101010001010011110100110 >
b101010001010011110100110 A!
0B!
b101010001010011110100110101010001010011110100110 C
b0 D
b0 F
0I
1S
b10100101101001011010010010100100 Y
1Z
0[
0_
1a
b101010001010011110100110 b
1c
0d
b11 e
b1 g
0i
1k
b101010001010011110100110 l
b101010001010011110100110 l!
1m
b101010001010011110100110 m!
0n
0n!
b11 o
1o!
b1 q
b101010001010100010100111101001111010011010100110 q!
b101010001010011110100110 s
b10 s!
0t
b10 t!
0v
0v!

#106000
1"

#110000
0!
00

#111000
0"

#115000
1!
b1 !!
b110 "!
b101010111010101010101001101010111010101010101001 $
b11 %
10
b101010111010101010101001101010111010101010101001 2
b11 3
1:
b11 :!
b1010101110101010101010010101010111010101010101001 =
bx >
bx A!
xB!
bx C
bx D
xI
b11 N
0S
b1010011110100111101001101010011010100101101001011010010010100100 Y
0Z
1[
b101010111010101010101001 ^
1_
0a
bx b
0c
1d
b11 f
b0 g
b101010111010101010101001 h
1i
0k
bx l
bx l!
0m
bx m!
1n
xn!
0o!
b11 p
b0 q
bx q!
bx s
xt
b100 u!
1w!
b10 |

#116000
1"

#120000
0!
00

#121000
0"

#125000
1!
b0 %
b10101111 .
b10101111 /
10
b0 3
0:
b1010101110101010101010010101010111010101010101001 >
b101010111010101010101001 A!
0B!
b101010111010101010101001101010111010101010101001 C
b0 D
0I
1S
1Z
0_
1a
b101010111010101010101001 b
1c
0d
b100 e
b1 g
0i
1k
b101010111010101010101001 l
b101010111010101010101001 l!
1m
b101010111010101010101001 m!
0n
0n!
b100 o
1o!
b1 q
b101010111010101110101010101010101010100110101001 q!
b101010111010101010101001 s
0t

#126000
1"

#130000
0!
00

#131000
0"

#135000
1!
b11 !!
b0 "!
b1 #!
b101011101010110110101100101011101010110110101100 $
1$!
b11 %
1&!
b11 '
10
b101011101010110110101100101011101010110110101100 2
b11 3
b11 4
b10 7!
b1 8!
1:
b11010111010101101101011001101011101010110110101100 =
bx >
1@!
bx A!
xB!
bx C
bx D
b11 E
xI
b1 K
0S
0Z
b1101011101010110110101100 ^
1_
0a
bx b
0c
1d
b100 f
b0 g
b1101011101010110110101100 h
1i
0k
bx l
bx l!
0m
bx m!
1n
xn!
0o!
b100 p
b0 q
bx q!
bx s
xt
b1 u!
1x
1x!
b0 |
b100 }
b111 ~

#136000
1"

#140000
0!
00

#141000
0"

#145000
1!
b0 %
0&!
b0 '
10
b0 3
b0 4
0:
b1010111010101101101011000101011101010110110101100 =
b11010111010101101101011001101011101010110110101100 >
b101011101010110110101100 A!
1B!
b101011101010110110101100101011101010110110101100 C
b11 D
1I
b0 K
1S
1Z
b101011101010110110101100 ^
0_
1a
b1101011101010110110101100 b
1c
0d
b101 e
b1 g
b101011101010110110101100 h
0i
1k
b1101011101010110110101100 l
b101011101010110110101100 l!
1m
b101011101010110110101100 m!
0n
1n!
b101 o
1o!
b1 q
b101011101010111010101101101011011010110010101100 q!
b101011101010110110101100 s
1t
0x

#146000
1"

#150000
0!
00

#151000
0"

#155000
1!
b0 #!
1&!
b1 (!
1)!
10
b11 5!
1:
bx >
bx A!
xB!
bx C
bx D
1D!
b10 F
bx01 G
xI
b1 J
b1 K
0S
0Z
bx01 \
0a
bx b
0c
1d
b101 f
b0 g
0k
bx l
bx l!
0m
bx m!
1n
xn!
0o!
b101 p
b1 p!
b0 q
bx q!
bx s
xt
1v!
0w
1x
1y
1z
b1 {
b11 }
b0 ~

#156000
1"

#160000
0!
00

#161000
0"

#165000
1!
0%!
0&!
0)!
10
0D!
1E!
b0 F
bx00 G
b0 K
1S!
1w
0x
0y

#166000
1"

#170000
0!
00

#171000
0"

#175000
1!
1%!
10
1Q!

#176000
1"

#180000
0!
1*
00
15

#181000
0"

#185000
1!
b1010011110100111101001101010011010100101101001011010010010100100 (
10
b1010101110101011101010101010101010101001101010011010100010101000 Y
b100 s!
b100 t!
0w!
1y!

#186000
1"

#190000
0!
0*
00
05

#191000
0"

#195000
1!
10

#196000
1"

#200000
0!
00

#201000
0"

#205000
1!
10

#206000
1"

#210000
0!
00

#211000
0"

#215000
1!
10

#216000
1"

#220000
0!
00

#221000
0"

#225000
1!
b101100011011000010101111101100011011000010101111 $
b11 %
b10110010 .
b10110010 /
10
b101100011011000010101111101100011011000010101111 2
b11 3
b1011000110110000101011110101100011011000010101111 =
b101100011011000010101111 ^
1_
b101100011011000010101111 h
1i

#226000
1"

#230000
0!
1*
00
15

#231000
0"

#235000
1!
b0 %
b1010101110101011101010101010101010101001101010011010100010101000 (
b10110101 .
b10110101 /
10
b0 3
0:
b1011000110110000101011110101100011011000010101111 >
b101100011011000010101111 A!
0B!
b101100011011000010101111101100011011000010101111 C
b0 D
1H
0I
b101011101010111010101101101011011010110010101100 Y
1Z
0_
b101100011011000010101111 b
1c
0d
b110 e
b1 g
0i
b101100011011000010101111 l
b101100011011000010101111 l!
1m
b101100011011000010101111 m!
0n
0n!
b110 o
1o!
b1 q
b101100011011000110110000101100001010111110101111 q!
b101100011011000010101111 s
b0 s!
0t
b0 t!
0x!
0y!

#236000
1"

#240000
0!
0*
00
05

#241000
0"

#245000
1!
b11 #!
b101101001011001110110010101101001011001110110010 $
b11 %
10
b11 0!
b101101001011001110110010101101001011001110110010 2
b11 3
b1011010010110011101100100101101001011001110110010 =
1D!
b10 F
b101 J!
b110 M!
b11 N!
b101101001011001110110010 ^
1_
b11 f!
b101101001011001110110010 h
1i
b110 }
b101 ~

#246000
1"

#250000
0!
1*
00
15

#251000
0"

#255000
1!
b110 #!
b0 %
b101011101010111010101101101011011010110010101100 (
1+
b10111000 .
b10111000 /
10
b11 0!
b0 3
0D!
b1 F
0H
b10 J!
b1 M!
b110 N!
1S
0[
0_
1a
b111 e
b11 f!
b10 g
0i
1k
b111 o
b0 p!
b10 q
1v
0v!
1y!
b1 }
b10 ~

#256000
1"

#260000
0!
00

#261000
0"

#265000
1!
b100 !!
b1 "!
b0 #!
b101101111011011010110101101101111011011010110101 $
0$!
b11 %
1&!
b0 (
0)
0+
b10 -!
b1 .!
10
b101101111011011010110101101101111011011010110101 2
b11 3
b1011011110110110101101010101101111011011010110101 =
b1011010010110011101100100101101001011001110110010 >
b101101001011001110110010 A!
b101101001011001110110010101101001011001110110010 C
1F!
b0 J!
b11 K
b100 K!
b111 L!
b11 M!
b0 N!
b1 O!
1P!
1R!
b101100011011000110110000101100001010111110101111 Y
b101101111011011010110101 ^
1_
b101101001011001110110010 b
b10 c!
b1 d!
b110 f
b1 g
b101101111011011010110101 h
1i
b101101001011001110110010 l
b101101001011001110110010 l!
b101101001011001110110010 m!
b110 p
b1 q
b101101001011010010110011101100111011001010110010 q!
b101101001011001110110010 s
b10 u!
1x
0y!
b111 |
b11 }
b0 ~

#266000
1"

#270000
0!
0*
00
05

#271000
0"

#275000
1!
b111 !!
b100 "!
b0 %
0&!
b10111011 .
b10111011 /
10
b0 3
b11 :!
b1011011110110110101101010101101111011011010110101 >
b101101111011011010110101 A!
b101101111011011010110101101101111011011010110101 C
b0 F
0F!
b0 K
b111 K!
b100 L!
b100 O!
0R!
0S
b1011001010110010101100011011000110110000101100001010111110101111 Y
1[
b11 \!
0_
0a
b101101111011011010110101 b
b1000 e
b111 f
0i
0k
b101101111011011010110101 l
b101101111011011010110101 l!
b101101111011011010110101 m!
b1000 o
b111 p
b101101111011011110110110101101101011010110110101 q!
b101101111011011010110101 s
b11 u!
0v
1v!
0x
b100 |

#276000
1"

#280000
0!
1*
00
15

#281000
0"

#285000
1!
b10 !!
b111 "!
b101110101011100110111000101110101011100110111000 $
b11 %
b1011001010110010101100011011000110110000101100001010111110101111 (
1)
10
b101110101011100110111000101110101011100110111000 2
b11 3
b11 :!
b1011101010111001101110000101110101011100110111000 =
b1 F
b10 K!
b1 L!
b111 O!
1S
b1011011010110110101101011011010110110100101101001011001110110011 Y
b11 \!
b101110101011100110111000 ^
1_
1a
b101110101011100110111000 h
1i
1k
b10 s!
b10 t!
b100 u!
1v
0v!
1w!
b1 |

#286000
1"

#290000
0!
00

#291000
0"

#295000
1!
b11 !!
b0 "!
b10 #!
1$!
b0 %
1&!
b1011011010110110101101011011010110110100101101001011001110110011 (
b0 (!
b10111110 .
b10111110 /
10
b0 3
b1 6!
b10 9!
b1011101010111001101110000101110101011100110111000 >
b101110101011100110111000 A!
b101110101011100110111000101110101011100110111000 C
1F!
b1 I!
b110 J!
b11 K
b11 K!
b0 L!
b101 M!
b10 N!
b0 O!
0P!
1R!
b1 T!
b1 X!
b1011011110110111101101101011011010110101101101011011011110110111 Y
b10 [!
bx10 \
0_
b101110101011100110111000 b
b1001 e
b1000 f
0i
b101110101011100110111000 l
b101110101011100110111000 l!
b101110101011100110111000 m!
b1001 o
b1000 p
b101110101011101010111001101110011011100010111000 q!
b101110101011100110111000 s
b100 s!
b100 t!
b1 u!
0w!
1x
1x!
1y!
b0 {
b0 |
b101 }
b110 ~

#296000
1"

#300000
0!
00

#301000
0"

#305000
1!
b101 #!
b101111011011110010111011101111011011110010111011 $
b11 %
0&!
b11 '
b1011011110110111101101101011011010110101101101011011011110110111 (
10
b11 0!
b101111011011110010111011101111011011110010111011 2
b11 3
b11 4
1:
b11011110110111100101110111101111011011110010111011 =
bx >
bx A!
xB!
bx C
bx D
0F!
xI
b11 J!
b0 K
b0 M!
b101 N!
0R!
0S
b1011001010110010101110101011101010111001101110011011100010111000 Y
0Z
0[
b1101111011011110010111011 ^
1_
0a
bx b
0c
1d
b1001 f
b11 f!
b0 g
b1101111011011110010111011 h
1i
0k
bx l
bx l!
0m
bx m!
1n
xn!
0o!
b1001 p
b0 q
bx q!
bx s
b0 s!
xt
b0 t!
b10 u!
0x
0x!
0y!
b0 }
b11 ~

#306000
1"

#310000
0!
00

#311000
0"

#315000
1!
b0 %
b0 '
b0 (
0)
10
b0 3
b0 4
0:
b1011110110111100101110110101111011011110010111011 =
b11011110110111100101110111101111011011110010111011 >
b101111011011110010111011 A!
1B!
b101111011011110010111011101111011011110010111011 C
b11 D
1I
1S
1Z
b101111011011110010111011 ^
0_
1a
b1101111011011110010111011 b
1c
0d
b1010 e
b1 g
b101111011011110010111011 h
0i
1k
b1101111011011110010111011 l
b101111011011110010111011 l!
1m
b101111011011110010111011 m!
0n
1n!
b1010 o
1o!
b1 q
b101111011011110110111100101111001011101110111011 q!
b101111011011110010111011 s
1t
1y!

#316000
1"

#320000
0!
00

#321000
0"

#325000
1!
b0 #!
1&!
b1 (!
1)!
10
b11 5!
1:
bx >
bx A!
xB!
bx C
bx D
0E!
1F!
bx11 G
1G!
1H!
xI
b0 I!
b11 J
b0 J!
b11 K
b11 M!
b0 N!
1R!
0S
b0 T!
1U!
b1011101110111011101110101011101010111001101110011011100010111000 Y
0Z
1[
bx01 \
0a
bx b
0c
1d
b1010 f
b0 g
0k
b11 k!
bx l
bx l!
0m
bx m!
1n
xn!
0o!
b1010 p
b10 p!
b0 q
bx q!
bx s
xt
b1 u!
1v!
0w
1w!
1x
1y
b1 {
b11 }
b0 ~

#326000
1"

#330000
0!
00

#331000
0"

#335000
1!
0$!
0%!
0&!
0'!
b1011101110111011101110101011101010111001101110011011100010111000 (
b0 (!
1)
0)!
10
b10 E
1E!
b0 F
0F!
bx00 G
0G!
1H
b10 J
b0 K
b100 N
0Q!
0R!
0U!
b10111101101111011011110010111100 Y
bx00 \
0r
b10 s!
b10 t!
0v
0v!
0w
0x
0y
0z
b0 {

#336000
1"

#340000
0!
00

#341000
0"

#345000
1!
b10111101101111011011110010111100 (
1+
10
0H
1L
1Q!
b1011101110111011101110101011101010111001101110011011100010111000 Y
0[
b0 p!
b0 s!
b0 t!
0w!
0y!

#346000
1"

#350000
0!
00

#351000
0"

#355000
1!
b0 (
0)
0+
10
1y!

#356000
1"

#360000
0!
00

#361000
0"

#365000
1!
10

#366000
1"

#370000
0!
00

#371000
0"

#375000
1!
10

#376000
1"

#380000
0!
00

#381000
0"

#385000
1!
10

#386000
1"

#390000
0!
00

#391000
0"

#395000
1!
b110000001011111110111110110000001011111110111110 $
b11 %
b11000001 .
b11000001 /
10
b110000001011111110111110110000001011111110111110 2
b11 3
b1100000010111111101111100110000001011111110111110 =
b110000001011111110111110 ^
1_
b110000001011111110111110 h
1i

#396000
1"

#400000
0!
00

#401000
0"

#405000
1!
b0 %
b11000100 .
b11000100 /
10
b0 3
0:
b1100000010111111101111100110000001011111110111110 >
b110000001011111110111110 A!
0B!
b110000001011111110111110110000001011111110111110 C
b0 D
0I
1S
1Z
0_
1a
b110000001011111110111110 b
1c
0d
b1011 e
b1 g
0i
1k
b110000001011111110111110 l
b110000001011111110111110 l!
1m
b110000001011111110111110 m!
0n
0n!
b1011 o
1o!
b1 q
b110000001100000010111111101111111011111010111110 q!
b110000001011111110111110 s
0t

#406000
1"

#410000
0!
00

#411000
0"

#415000
1!
b110000111100001011000001110000111100001011000001 $
b11 %
10
b110000111100001011000001110000111100001011000001 2
b11 3
1:
b1100001111000010110000010110000111100001011000001 =
bx >
bx A!
xB!
bx C
bx D
1D!
b11 E
b10 F
xI
b101 J!
b110 M!
b11 N!
0S
b1011101110111011110000001100000010111111101111111011111010111110 Y
0Z
b110000111100001011000001 ^
1_
0a
bx b
0c
1d
b1011 f
b11 f!
b0 g
b110000111100001011000001 h
1i
0k
bx l
bx l!
0m
bx m!
1n
xn!
0o!
b1011 p
b0 q
bx q!
1r
bx s
xt
b10 u!

#416000
1"

#420000
0!
00

#421000
0"

#425000
1!
b0 %
b11000111 .
b11000111 /
10
b0 3
0:
b1100001111000010110000010110000111100001011000001 >
b110000111100001011000001 A!
0B!
b110000111100001011000001110000111100001011000001 C
b0 D
0I
1S
1Z
0_
1a
b110000111100001011000001 b
1c
0d
b1100 e
b1 g
0i
1k
b110000111100001011000001 l
b110000111100001011000001 l!
1m
b110000111100001011000001 m!
0n
0n!
b1100 o
1o!
b1 q
b110000111100001111000010110000101100000111000001 q!
b110000111100001011000001 s
0t

#426000
1"

#430000
0!
00

#431000
0"

