my_assignment.sim/sim_1/behav/xsim/stream_processor_tb.vcd
$date
   Fri Jun 20 21:09:53 2025
$end

$version
  2024.1
  $dumpfile ("stream_processor_tb.vcd") 
$end

$timescale
  1ps
$end

$scope module tb_stream_processor_2 $end
$var reg 1 ! clk $end
$var reg 1 " clk_monitor $end
$var reg 1 # reset_n $end
$var reg 48 $ s_axis_tdata [47:0] $end
$var reg 2 % s_axis_tvalid [1:0] $end
$var reg 2 & s_axis_tready [1:0] $end
$var reg 2 ' s_axis_tlast [1:0] $end
$var reg 64 ( m_axis_tdata [63:0] $end
$var reg 1 ) m_axis_tvalid $end
$var reg 1 * m_axis_tready $end
$var reg 1 + m_axis_tlast $end
$var reg 1 , config_mode $end
$var reg 1 - status_packets_size_mismatch $end
$var reg 8 . ch0_data_counter [7:0] $end
$var reg 8 / ch1_data_counter [7:0] $end
$scope module dut $end
$var wire 1 0 clk $end
$var wire 1 1 reset_n $end
$var wire 48 2 s_axis_tdata [47:0] $end
$var wire 2 3 s_axis_tvalid [1:0] $end
$var reg 2 & s_axis_tready [1:0] $end
$var wire 2 4 s_axis_tlast [1:0] $end
$var reg 64 ( m_axis_tdata [63:0] $end
$var reg 1 ) m_axis_tvalid $end
$var wire 1 5 m_axis_tready $end
$var reg 1 + m_axis_tlast $end
$var wire 1 6 config_mode $end
$var reg 1 - status_packets_size_mismatch $end
$var reg 1 7 start_proces $end
$var reg 1 8 start_proces_1f $end
$var reg 1 9 m_axis_tready_next $end
$var reg 1 : both_empty $end
$var reg 1 ; m_axis_tvalid_reg $end
$var reg 2 < back_pressure [1:0] $end
$var reg 50 = fifo_din [49:0] $end
$var reg 50 > fifo_dout [49:0] $end
$var reg 3 ? remaining_ptr_a_buf_1 [2:0] $end
$var reg 3 @ extra_ptr_b_buf_1 [2:0] $end
$var reg 3 A remaining_ptr_a_buf_2 [2:0] $end
$var reg 3 B extra_ptr_b_buf_2 [2:0] $end
$var reg 48 C fifo_data_out [47:0] $end
$var reg 2 D fifo_last_out [1:0] $end
$var reg 2 E s_rst_n [1:0] $end
$var reg 2 F ch_enable [1:0] $end
$var reg 3 G m_axis_tlast_sig [2:0] $end
$var reg 2 H m_axis_tlast_both [1:0] $end
$var reg 2 I reset_init [1:0] $end
$var reg 2 J data_valid [1:0] $end
$var reg 1 K axi_out_mux $end
$var reg 64 L m_axis_tdata_after_mux [63:0] $end
$var reg 3 M state $end
$var reg 24 N fifo_data_out_1 [23:0] $end
$var reg 24 O fifo_data_out_2 [23:0] $end
$var reg 1 P fifo_last $end
$var reg 1 Q int_tready $end
$var reg 1 R fifo_rd_intr $end
$var reg 1 S intr_axis_tvalid $end
$var reg 1 T intr_axis_tlast $end
$var reg 1 U intr_reset_init $end
$var reg 1 V load_buffer $end
$var reg 1 W first_data $end
$var reg 64 X m_axis_tdata_sig [63:0] $end
$var reg 4 Y intr_switch_select $end
$var reg 1 Z fifo_read $end
$var reg 1 [ both_fifo_valid $end
$var reg 4 \ switch_select $end
$var wire 1 ] axi_handshake $end
$scope module sync_fifo[0].fifo_inst $end
$var wire 1 0 clk $end
$var wire 1 ^ reset $end
$var wire 25 _ din [24:0] $end
$var wire 1 ` wr_en $end
$var reg 1 a full $end
$var wire 1 b rd_en $end
$var reg 25 c dout [24:0] $end
$var reg 1 d valid $end
$var reg 1 e empty $end
$var reg 8 f wr_ptr [7:0] $end
$var reg 8 g rd_ptr [7:0] $end
$var reg 9 h count [8:0] $end
$upscope $end
$scope module sync_fifo[1].fifo_inst $end
$var wire 1 0 clk $end
$var wire 1 ^ reset $end
$var wire 25 i din [24:0] $end
$var wire 1 j wr_en $end
$var reg 1 k full $end
$var wire 1 l rd_en $end
$var reg 25 m dout [49:25] $end
$var reg 1 n valid $end
$var reg 1 o empty $end
$var reg 8 p wr_ptr [7:0] $end
$var reg 8 q rd_ptr [7:0] $end
$var reg 9 r count [8:0] $end
$upscope $end
$scope module u_non_inter_machine_1 $end
$var wire 1 0 clk $end
$var wire 1 s reset_n $end
$var wire 24 t fifo_data_out [23:0] $end
$var wire 1 u fifo_last_out $end
$var wire 1 v m_axis_tready $end
$var wire 1 w start_proces $end
$var reg 1 x fifo_rd $end
$var reg 1 y m_axis_tvalid $end
$var reg 1 z m_axis_tlast $end
$var reg 1 { reset_init $end
$var reg 3 | switch_select [2:0] $end
$var reg 3 } remaining_ptr_a_buf_1 [2:0] $end
$var reg 3 ~ extra_ptr_b_buf_1 [2:0] $end
$var reg 3 !! remaining_ptr_a_buf_2 [2:0] $end
$var reg 3 "! extra_ptr_b_buf_2 [2:0] $end
$var reg 6 #! write_ptr_a [5:0] $end
$var reg 6 $! write_ptr_b [5:0] $end
$var reg 1 %! buffer_switch $end
$var reg 1 &! fifo_rd_reg_1 $end
$var reg 1 '! m_axis_tvalid_reg $end
$var reg 1 (! start_proces_reg $end
$var reg 2 )! switch_select_reg [1:0] $end
$var reg 1 *! m_axis_tlast_reg $end
$var reg 1 +! extr_data $end
$scope begin Block81_9 $end
$var reg 32 ,! i [31:0] $end
$upscope $end
$scope begin Block112_10 $end
$var reg 32 -! i [31:0] $end
$upscope $end
$scope begin Block116_11 $end
$var reg 32 .! i [31:0] $end
$upscope $end
$scope begin Block121_12 $end
$var reg 32 /! i [31:0] $end
$upscope $end
$scope begin Block125_13 $end
$var reg 32 0! i [31:0] $end
$upscope $end
$scope begin Block130_14 $end
$var reg 32 1! i [31:0] $end
$upscope $end
$scope begin Block163_15 $end
$var reg 32 2! i [31:0] $end
$upscope $end
$scope begin Block167_16 $end
$var reg 32 3! i [31:0] $end
$upscope $end
$scope begin Block172_17 $end
$var reg 32 4! i [31:0] $end
$upscope $end
$scope begin Block176_18 $end
$var reg 32 5! i [31:0] $end
$upscope $end
$scope begin Block182_19 $end
$var reg 32 6! i [31:0] $end
$upscope $end
$scope begin Block192_20 $end
$var reg 32 7! i [31:0] $end
$upscope $end
$scope begin Block196_21 $end
$var reg 32 8! i [31:0] $end
$upscope $end
$scope begin Block201_22 $end
$var reg 32 9! i [31:0] $end
$upscope $end
$scope begin Block205_23 $end
$var reg 32 :! i [31:0] $end
$upscope $end
$scope begin Block215_24 $end
$var reg 32 ;! i [31:0] $end
$upscope $end
$scope begin Block248_25 $end
$var reg 32 <! i [31:0] $end
$upscope $end
$scope begin Block252_26 $end
$var reg 32 =! i [31:0] $end
$upscope $end
$scope begin Block257_27 $end
$var reg 32 >! i [31:0] $end
$upscope $end
$scope begin Block261_28 $end
$var reg 32 ?! i [31:0] $end
$upscope $end
$scope begin Block267_29 $end
$var reg 32 @! i [31:0] $end
$upscope $end
$upscope $end
$scope module u_non_inter_machine_2 $end
$var wire 1 0 clk $end
$var wire 1 A! reset_n $end
$var wire 24 B! fifo_data_out [23:0] $end
$var wire 1 C! fifo_last_out $end
$var wire 1 D! m_axis_tready $end
$var wire 1 E! start_proces $end
$var reg 1 F! fifo_rd $end
$var reg 1 G! m_axis_tvalid $end
$var reg 1 H! m_axis_tlast $end
$var reg 1 I! reset_init $end
$var reg 3 J! switch_select [2:0] $end
$var reg 3 K! remaining_ptr_a_buf_1 [2:0] $end
$var reg 3 L! extra_ptr_b_buf_1 [2:0] $end
$var reg 3 M! remaining_ptr_a_buf_2 [2:0] $end
$var reg 3 N! extra_ptr_b_buf_2 [2:0] $end
$var reg 6 O! write_ptr_a [5:0] $end
$var reg 6 P! write_ptr_b [5:0] $end
$var reg 1 Q! buffer_switch $end
$var reg 1 R! fifo_rd_reg_1 $end
$var reg 1 S! m_axis_tvalid_reg $end
$var reg 1 T! start_proces_reg $end
$var reg 2 U! switch_select_reg [1:0] $end
$var reg 1 V! m_axis_tlast_reg $end
$var reg 1 W! extr_data $end
$scope begin Block81_9 $end
$var reg 32 X! i [31:0] $end
$upscope $end
$scope begin Block112_10 $end
$var reg 32 Y! i [31:0] $end
$upscope $end
$scope begin Block116_11 $end
$var reg 32 Z! i [31:0] $end
$upscope $end
$scope begin Block121_12 $end
$var reg 32 [! i [31:0] $end
$upscope $end
$scope begin Block125_13 $end
$var reg 32 \! i [31:0] $end
$upscope $end
$scope begin Block130_14 $end
$var reg 32 ]! i [31:0] $end
$upscope $end
$scope begin Block163_15 $end
$var reg 32 ^! i [31:0] $end
$upscope $end
$scope begin Block167_16 $end
$var reg 32 _! i [31:0] $end
$upscope $end
$scope begin Block172_17 $end
$var reg 32 `! i [31:0] $end
$upscope $end
$scope begin Block176_18 $end
$var reg 32 a! i [31:0] $end
$upscope $end
$scope begin Block182_19 $end
$var reg 32 b! i [31:0] $end
$upscope $end
$scope begin Block192_20 $end
$var reg 32 c! i [31:0] $end
$upscope $end
$scope begin Block196_21 $end
$var reg 32 d! i [31:0] $end
$upscope $end
$scope begin Block201_22 $end
$var reg 32 e! i [31:0] $end
$upscope $end
$scope begin Block205_23 $end
$var reg 32 f! i [31:0] $end
$upscope $end
$scope begin Block215_24 $end
$var reg 32 g! i [31:0] $end
$upscope $end
$scope begin Block248_25 $end
$var reg 32 h! i [31:0] $end
$upscope $end
$scope begin Block252_26 $end
$var reg 32 i! i [31:0] $end
$upscope $end
$scope begin Block257_27 $end
$var reg 32 j! i [31:0] $end
$upscope $end
$scope begin Block261_28 $end
$var reg 32 k! i [31:0] $end
$upscope $end
$scope begin Block267_29 $end
$var reg 32 l! i [31:0] $end
$upscope $end
$upscope $end
$scope module u_inter_machine $end
$var wire 1 0 clk $end
$var wire 1 1 reset_n $end
$var wire 24 m! fifo_data_out_1 [23:0] $end
$var wire 24 n! fifo_data_out_2 [23:0] $end
$var wire 1 o! start_proces $end
$var wire 1 p! fifo_last_out $end
$var wire 1 5 m_axis_tready $end
$var wire 1 q! m_axis_tvalid_reg $end
$var wire 1 r! fifo_valid $end
$var reg 1 W first_data $end
$var reg 1 V load_buffer $end
$var reg 1 S m_axis_tvalid $end
$var reg 1 Z fifo_read $end
$var reg 1 s! m_axis_tlast $end
$var reg 1 t! axi_handshake $end
$var reg 4 Y switch_select $end
$var reg 1 u! m_axis_tlast_sig $end
$var reg 1 v! first_data_on_output $end
$var reg 48 w! fifo_data_combine [47:0] $end
$var reg 1 x! first_a $end
$var reg 1 y! buffer_full $end
$var reg 1 z! all_3_buf_ful $end
$var reg 4 {! STATE_MUX $end
$var reg 4 |! data_wrt_reg_sel $end
$var reg 1 }! buffer_1_has_data $end
$var reg 1 ~! buffer_2_has_data $end
$var reg 1 !" buffer_3_has_data $end
$var reg 1 "" tem2 $end
$var reg 1 #" mux_data_valid $end
$var reg 1 $" stage2_valid $end
$var reg 1 %" all_buffer_full $end
$var reg 4 &" data_wrt_reg_sel_prev $end
$var reg 1 '" data_wrt_reg_sel_pulse $end
$var reg 1 (" buffer_a_has_data_d $end
$var reg 1 )" buffer_b_has_data_d $end
$var reg 1 *" buffer_c_has_data_d $end
$var reg 1 +" buffer_change_event $end
$var reg 1 ," buffer_has_data $end
$upscope $end
$upscope $end
$scope task generate_channel_data $end
$upscope $end
$scope task send_beat $end
$upscope $end
$scope task send_packet $end
$upscope $end
$scope task test_basic $end
$upscope $end
$upscope $end
$enddefinitions $end

#0
$dumpvars
0!
b0 !!
0!"
0"
b11 "!
0""
0#
b0 #!
0#"
b0 $
b0 $!
x$"
b0 %
0%!
0%"
bx &
0&!
b0 &"
b0 '
0'!
0'"
b0 (
0(!
0("
0)
b0 )!
0)"
1*
0*!
0*"
0+
0+!
0+"
0,
b0 ,!
0,"
0-
b0 -!
b10100000 .
b0 .!
b10100000 /
b0 /!
00
b0 0!
01
b0 1!
b0 2
b0 2!
b0 3
b0 3!
b0 4
b0 4!
15
b0 5!
06
b0 6!
x7
b0 7!
x8
b0 8!
x9
b0 9!
x:
b0 :!
0;
b0 ;!
b0 <
b0 <!
b0 =
b0 =!
bx >
b0 >!
bx ?
b0 ?!
bx @
b0 @!
bx A
0A!
bx B
bx B!
bx C
xC!
bx D
0D!
b0 E
0E!
b0 F
0F!
b0 G
0G!
b0x H
0H!
b0 I
0I!
b0 J
b0 J!
0K
b0 K!
bx L
b11 L!
b0 M
b0 M!
bx N
b11 N!
bx O
b0 O!
xP
b0 P!
xQ
0Q!
xR
0R!
0S
0S!
xT
0T!
xU
b0 U!
xV
0V!
xW
0W!
b0 X
b0 X!
b11 Y
b0 Y!
xZ
b0 Z!
x[
b0 [!
bx00 \
b0 \!
x]
b0 ]!
1^
b0 ^!
b0 _
b0 _!
0`
b0 `!
xa
b0 a!
xb
b0 b!
bx c
b0 c!
xd
b0 d!
xe
b0 e!
bx f
b0 f!
bx g
b0 g!
bx h
b0 h!
b0 i
b0 i!
0j
b0 j!
xk
b0 k!
xl
b0 l!
bx m
bx m!
xn
bx n!
xo
xo!
bx p
xp!
bx q
0q!
bx r
xr!
0s
0s!
bx t
xt!
xu
0u!
0v
xv!
0w
bx w!
0x
0x!
0y
0y!
0z
xz!
0{
b11 {!
b0 |
b1 |!
b0 }
0}!
b11 ~
0~!
$end

#5000
1!
b11 &
10
1:
0Z
0[
0a
0b
0d
1e
b0 f
b0 g
b0 h
0k
0l
0n
1o
b0 p
b0 q
b0 r
0r!

#6000
1"

#10000
0!
00

#11000
0"

#15000
1!
10

#16000
1"

#20000
0!
1#
00
11
0^

#21000
0"

#25000
1!
1""
b1 &"
1'"
10
b1 E
b10 M
1s

#26000
1"

#30000
0!
00

#31000
0"

#35000
1!
0'"
10

#36000
1"

#40000
0!
0*
00
05

#41000
0"

#45000
1!
10

#46000
1"

#50000
0!
b10100011 .
b10100011 /
00

#51000
0"

#55000
1!
b101000101010000110100000101000101010000110100000 $
b11 %
10
b101000101010000110100000101000101010000110100000 2
b11 3
b1010001010100001101000000101000101010000110100000 =
b101000101010000110100000 _
1`
b101000101010000110100000 i
1j

#56000
1"

#60000
0!
00

#61000
0"

#65000
1!
b0 %
b10100110 .
b10100110 /
10
b0 3
0:
b1010001010100001101000000101000101010000110100000 >
b101000101010000110100000 B!
b101000101010000110100000101000101010000110100000 C
0C!
b0 D
b0 H
1Z
1[
0`
1b
b101000101010000110100000 c
1d
0e
b1 f
b1 h
0j
1l
b101000101010000110100000 m
b101000101010000110100000 m!
1n
b101000101010000110100000 n!
0o
b1 p
0p!
b1 r
1r!
b101000101010000110100000 t
0u
b101000101010001010100001101000011010000010100000 w!

#66000
1"

#70000
0!
00

#71000
0"

#75000
1!
b101001011010010010100011101001011010010010100011 $
b11 %
10
b101001011010010010100011101001011010010010100011 2
b11 3
1:
b1010010110100100101000110101001011010010010100011 =
bx >
bx B!
bx C
xC!
bx D
b1 F
b0x H
0Z
0[
b101001011010010010100011 _
1`
0b
bx c
0d
1e
b1 g
b0 h
b101001011010010010100011 i
1j
0l
bx m
bx m!
0n
bx n!
1o
xp!
b1 q
b0 r
0r!
bx t
xu
1w
bx w!
b10 |!

#76000
1"

#80000
0!
00

#81000
0"

#85000
1!
b0 %
b10 &"
1'"
1(!
b10101001 .
b10101001 /
10
b0 3
0:
b1010010110100100101000110101001011010010010100011 >
b101001011010010010100011 B!
b101001011010010010100011101001011010010010100011 C
0C!
b0 D
b0 F
b0 H
1Z
1[
0`
1b
b101001011010010010100011 c
1d
0e
b10 f
b1 h
0j
1l
b101001011010010010100011 m
b101001011010010010100011 m!
1n
b101001011010010010100011 n!
0o
b10 p
0p!
b1 r
1r!
b101001011010010010100011 t
0u
0w
b101001011010010110100100101001001010001110100011 w!
1x

#86000
1"

#90000
0!
00

#91000
0"

#95000
1!
b110 "!
b11 #!
b101010001010011110100110101010001010011110100110 $
b11 %
1&!
0'"
1+"
1,"
10
b101010001010011110100110101010001010011110100110 2
b11 3
1:
b11 ;!
b1010100010100111101001100101010001010011110100110 =
bx >
bx B!
bx C
xC!
bx D
b1 F
b0x H
0Z
0[
b101010001010011110100110 _
1`
0b
bx c
0d
1e
b10 g
b0 h
b101010001010011110100110 i
1j
0l
bx m
bx m!
0n
bx n!
1o
xp!
b10 q
b0 r
0r!
bx t
xu
1w
bx w!
b11 |!
b101 }
1}!

#96000
1"

#100000
0!
00

#101000
0"

#105000
1!
1#"
b0 %
b11 &"
1'"
1("
0+"
b10101100 .
b10101100 /
10
b0 3
0:
b1010100010100111101001100101010001010011110100110 >
b101010001010011110100110 B!
b101010001010011110100110101010001010011110100110 C
0C!
b0 D
b0 F
b0 H
b0 Y
1Z
1[
0`
1b
b101010001010011110100110 c
1d
0e
b11 f
b1 h
0j
1l
b101010001010011110100110 m
b101010001010011110100110 m!
1n
b101010001010011110100110 n!
0o
b11 p
0p!
b1 r
1r!
b101010001010011110100110 t
0u
0w
b101010001010100010100111101001111010011010100110 w!
b0 {!

#106000
1"

#110000
0!
00

#111000
0"

#115000
1!
b1 "!
b110 #!
b101010111010101010101001101010111010101010101001 $
b11 %
0'"
b1010001110100011101000101010001010100001101000011010000010100000 (
1)
1+"
10
b101010111010101010101001101010111010101010101001 2
b11 3
1:
1;
b11 ;!
b1010101110101010101010010101010111010101010101001 =
bx >
bx B!
bx C
xC!
bx D
b0x H
b11 M
1S
b1010001110100011101000101010001010100001101000011010000010100000 X
0Z
0[
b101010111010101010101001 _
1`
0b
bx c
0d
1e
b11 g
b0 h
b101010111010101010101001 i
1j
0l
bx m
bx m!
0n
bx n!
1o
xp!
b11 q
1q!
b0 r
0r!
bx t
xu
bx w!
b100 |!
b10 }
1~!

#116000
1"

#120000
0!
00

#121000
0"

#125000
1!
b0 %
b100 &"
1'"
1)"
1*
b10101111 .
b10101111 /
10
b0 3
15
0:
b1010101110101010101010010101010111010101010101001 >
b101010111010101010101001 B!
b101010111010101010101001101010111010101010101001 C
0C!
b0 D
b0 H
b1 Y
1Z
1[
0`
1b
b101010111010101010101001 c
1d
0e
b100 f
b1 h
0j
1l
b101010111010101010101001 m
b101010111010101010101001 m!
1n
b101010111010101010101001 n!
0o
b100 p
0p!
b1 r
1r!
b101010111010101010101001 t
0u
b101010111010101110101010101010101010100110101001 w!
b1 {!
0}!

#126000
1"

#130000
0!
00

#131000
0"

#135000
1!
b111 !!
1!"
b11 "!
b0 #!
b101011101010110110101100101011101010110110101100 $
b1 $!
b11 %
1%!
b11 '
1'!
0'"
b1010011110100111101001101010011010100101101001011010010010100100 (
0("
10
b101011101010110110101100101011101010110110101100 2
b11 3
b11 4
b10 8!
b1 9!
1:
b11010111010101101101011001101011101010110110101100 =
bx >
1A!
bx B!
bx C
xC!
bx D
b11 E
b1 F
b0x H
b1 J
b1010011110100111101001101010011010100101101001011010010010100100 X
b10 Y
0Z
0[
b1101011101010110110101100 _
1`
0b
bx c
0d
1e
b100 g
b0 h
b1101011101010110110101100 i
1j
0l
bx m
bx m!
0n
bx n!
1o
xp!
b100 q
b0 r
0r!
bx t
xu
1w
bx w!
1y
1y!
b10 {!
b1 |!
b0 }
b100 ~
0~!

#136000
1"

#140000
0!
00

#141000
0"

#145000
1!
0!"
0#"
b0 %
b1 &"
b0 '
0'!
1'"
b1010101110101011101010101010101010101001101010011010100010101000 (
0)"
1*"
0,"
10
b0 3
b0 4
0:
b1010111010101101101011000101011101010110110101100 =
b11010111010101101101011001101011101010110110101100 >
b101011101010110110101100 B!
b101011101010110110101100101011101010110110101100 C
1C!
b11 D
b1 H
b0 J
b1010101110101011101010101010101010101001101010011010100010101000 X
b11 Y
1Z
1[
b101011101010110110101100 _
0`
1b
b1101011101010110110101100 c
1d
0e
b101 f
b1 h
b101011101010110110101100 i
0j
1l
b1101011101010110110101100 m
b101011101010110110101100 m!
1n
b101011101010110110101100 n!
0o
b101 p
1p!
b1 r
1r!
b101011101010110110101100 t
1u
b101011101010111010101101101011011010110010101100 w!
0y
b11 {!

#146000
1"

#150000
0!
00

#151000
0"

#155000
1!
b0 !!
b0 $!
1'!
0'"
b100000001000000010000000100000001000000010000000100000001 (
0)
b1 )!
1*!
0*"
1,"
10
b11 6!
1:
0;
bx >
bx B!
bx C
xC!
bx D
1E!
b11 F
b1 G
b0x H
b1 I
b1 J
0S
b100000001000000010000000100000001000000010000000100000001 X
0Z
0[
bx01 \
0b
bx c
0d
1e
b101 g
b0 h
0l
bx m
bx m!
0n
bx n!
1o
xp!
b101 q
0q!
b0 r
0r!
bx t
xu
1u!
bx w!
0x
1y
1z
1{
b1 |
1}!
b11 ~

#156000
1"

#160000
0!
00

#161000
0"

#165000
1!
1#"
0%!
0&!
0'!
0(!
1("
b0 )!
0*!
0+"
10
b10 E
0E!
b0 F
1F!
b0 G
b0 I
b0 J
b100 M
1T!
b0 Y
bx00 \
0s
0u!
0w
0x
0y
0z
0{
b0 {!
b0 |

#166000
1"

#170000
0!
00

#171000
0"

#175000
1!
b101011101010111010101101101011011010110010101100 (
1)
10
1;
1K
1R!
1S
b101011101010111010101101101011011010110010101100 X
1q!

#176000
1"

#180000
0!
00

#181000
0"

#185000
1!
0#"
1+"
0,"
10
b1 Y
b1 {!
0}!

#186000
1"

#190000
0!
00

#191000
0"

#195000
1!
b100000001000000010000000100000001000000010000000100000001 (
0("
0)
0+"
10
0;
0S
b100000001000000010000000100000001000000010000000100000001 X
0q!

#196000
1"

#200000
0!
00

#201000
0"

#205000
1!
10

#206000
1"

#210000
0!
00

#211000
0"

#215000
1!
10

#216000
1"

#220000
0!
00

#221000
0"

#225000
1!
b101100011011000010101111101100011011000010101111 $
b11 %
b10110010 .
b10110010 /
10
b101100011011000010101111101100011011000010101111 2
b11 3
b1011000110110000101011110101100011011000010101111 =
b101100011011000010101111 _
1`
b101100011011000010101111 i
1j

#226000
1"

#230000
0!
00

#231000
0"

#235000
1!
b0 %
b10110101 .
b10110101 /
10
b0 3
0:
b1011000110110000101011110101100011011000010101111 >
b101100011011000010101111 B!
b101100011011000010101111101100011011000010101111 C
0C!
b0 D
b0 H
1Z
1[
0`
1b
b101100011011000010101111 c
1d
0e
b110 f
b1 h
0j
1l
b101100011011000010101111 m
b101100011011000010101111 m!
1n
b101100011011000010101111 n!
0o
b110 p
0p!
b1 r
1r!
b101100011011000010101111 t
0u
b101100011011000110110000101100001010111110101111 w!

#236000
1"

#240000
0!
00

#241000
0"

#245000
1!
b101101001011001110110010101101001011001110110010 $
b11 %
10
b101101001011001110110010101101001011001110110010 2
b11 3
1:
b1011010010110011101100100101101001011001110110010 =
bx >
bx B!
bx C
xC!
bx D
b11 E
1E!
b10 F
b0x H
b101 K!
b110 N!
b11 O!
0Z
0[
b101101001011001110110010 _
1`
0b
bx c
0d
1e
b110 g
b11 g!
b0 h
b101101001011001110110010 i
1j
0l
bx m
bx m!
0n
bx n!
1o
xp!
b110 q
b0 r
0r!
1s
bx t
xu
bx w!
b10 |!

#246000
1"

#250000
0!
00

#251000
0"

#255000
1!
b0 %
b10 &"
1'"
b10111000 .
b10111000 /
10
b0 3
0:
b1011010010110011101100100101101001011001110110010 >
b101101001011001110110010 B!
b101101001011001110110010101101001011001110110010 C
0C!
b0 D
b0 H
1Z
1[
0`
1b
b101101001011001110110010 c
1d
0e
b111 f
b1 h
0j
1l
b101101001011001110110010 m
b101101001011001110110010 m!
1n
b101101001011001110110010 n!
0o
b111 p
0p!
b1 r
1r!
b101101001011001110110010 t
0u
b101101001011010010110011101100111011001010110010 w!

#256000
1"

#260000
0!
00

#261000
0"

#265000
1!
b101101111011011010110101101101111011011010110101 $
b11 %
0'"
0*
1+"
1,"
10
b101101111011011010110101101101111011011010110101 2
b11 3
05
1:
b1011011110110110101101010101101111011011010110101 =
bx >
bx B!
bx C
xC!
bx D
0E!
b1 F
b0x H
b10 K!
b1 N!
b110 O!
0Z
0[
b101101111011011010110101 _
1`
0b
bx c
0d
1e
b111 g
b11 g!
b0 h
b101101111011011010110101 i
1j
0l
bx m
bx m!
0n
bx n!
1o
xp!
b111 q
b0 r
0r!
bx t
xu
1w
bx w!
b11 |!
1}!

#266000
1"

#270000
0!
00

#271000
0"

#275000
1!
b0 %
b11 &"
1'"
1(!
1("
0+"
b10111011 .
b10111011 /
10
b0 3
0:
b1011011110110110101101010101101111011011010110101 >
b101101111011011010110101 B!
b101101111011011010110101101101111011011010110101 C
0C!
b0 D
b0 F
b0 H
1Z
1[
0`
1b
b101101111011011010110101 c
1d
0e
b1000 f
b1 h
0j
1l
b101101111011011010110101 m
b101101111011011010110101 m!
1n
b101101111011011010110101 n!
0o
b1000 p
0p!
b1 r
1r!
b101101111011011010110101 t
0u
0w
b101101111011011110110110101101101011010110110101 w!
1x

#276000
1"

#280000
0!
00

#281000
0"

#285000
1!
b110 "!
b11 #!
1#"
b101110101011100110111000101110101011100110111000 $
b11 %
1&!
0'"
1+"
10
b101110101011100110111000101110101011100110111000 2
b11 3
1:
b11 ;!
b1011101010111001101110000101110101011100110111000 =
bx >
bx B!
bx C
xC!
bx D
b1 F
1G!
b0x H
b10 J
b0 K!
b100 L!
b111 M!
b11 N!
b0 O!
b1 P!
1Q!
1S!
0Z
0[
b101110101011100110111000 _
1`
0b
bx c
0d
b10 d!
1e
b1 e!
b1000 g
b0 h
b101110101011100110111000 i
1j
0l
bx m
bx m!
0n
bx n!
1o
xp!
b1000 q
b0 r
0r!
bx t
xu
1w
bx w!
b100 |!
b101 }
1~!

#286000
1"

#290000
0!
00

#291000
0"

#295000
1!
b0 %
b100 &"
1'"
b1011011010110110101101011011010110110100101101001011001110110011 (
1)
1)"
0+"
b10111110 .
b10111110 /
10
b0 3
0:
1;
b1011101010111001101110000101110101011100110111000 >
b101110101011100110111000 B!
b101110101011100110111000101110101011100110111000 C
0C!
b0 D
b0 F
0G!
b0 H
b0 J
1S
0S!
b1011011010110110101101011011010110110100101101001011001110110011 X
1Z
1[
0`
1b
b101110101011100110111000 c
1d
0e
b1001 f
b1 h
0j
1l
b101110101011100110111000 m
b101110101011100110111000 m!
1n
b101110101011100110111000 n!
0o
b1001 p
0p!
1q!
b1 r
1r!
b101110101011100110111000 t
0u
0w
b101110101011101010111001101110011011100010111000 w!

#296000
1"

#300000
0!
00

#301000
0"

#305000
1!
1!"
b1 "!
b110 #!
b101111011011110010111011101111011011110010111011 $
b11 %
1%"
b11 '
0'"
1+"
10
b101111011011110010111011101111011011110010111011 2
b11 3
b11 4
1:
b11 ;!
b11011110110111100101110111101111011011110010111011 =
bx >
bx B!
bx C
xC!
bx D
b0x H
b111 L!
b100 M!
b100 P!
0Z
0[
b11 ]!
b1101111011011110010111011 _
1`
0b
bx c
0d
1e
b1001 g
b0 h
b1101111011011110010111011 i
1j
0l
bx m
bx m!
0n
bx n!
1o
xp!
b1001 q
b0 r
0r!
bx t
xu
bx w!
b1 |!
b10 }

#306000
1"

#310000
0!
00

#311000
0"

#315000
1!
b0 %
b1 &"
b0 '
1'"
1*"
0+"
10
b0 3
b0 4
0:
b1011110110111100101110110101111011011110010111011 =
b11011110110111100101110111101111011011110010111011 >
b101111011011110010111011 B!
b101111011011110010111011101111011011110010111011 C
1C!
b11 D
b1 H
1[
b101111011011110010111011 _
0`
b1101111011011110010111011 c
1d
0e
b1010 f
b1 h
b101111011011110010111011 i
0j
b1101111011011110010111011 m
b101111011011110010111011 m!
1n
b101111011011110010111011 n!
0o
b1010 p
1p!
b1 r
1r!
b101111011011110010111011 t
1u
b101111011011110110111100101111001011101110111011 w!

#316000
1"

#320000
0!
00

#321000
0"

#325000
1!
b11 "!
b0 #!
1'!
0'"
1+!
10
b10 =!
b1 >!
0F!
b10 G
1G!
1H!
b11 I
1I!
b11 J
b1 J!
b11 L!
b0 M!
b0 P!
1S!
b1 U!
1V!
bx10 \
b11 b!
0x
1y
1{
b0 }

#326000
1"

#330000
0!
00

#331000
0"

#335000
1!
0%"
0&!
b10 )!
1*
1*!
1+"
10
15
0A!
b1 E
0F!
b1 G
0G!
0H!
b1 I
0I!
b1 J
b0 J!
b11 M
0Q!
0R!
0S!
0T!
b0 U!
0V!
b10 Y
1Z
bx00 \
1b
b11 b!
1l
1z
b10 {!
b10 |
0~!

#336000
1"

#340000
0!
00

#341000
0"

#345000
1!
0!"
0'!
b1011101010111010101110011011100110111000101110001011011110110111 (
0(!
b0 )!
0)"
0*!
0+!
10
1:
bx >
1A!
bx B!
bx C
xC!
bx D
b10 E
b0 G
b0x H
b0 I
b0 J
0K
b100 M
b1011101010111010101110011011100110111000101110001011011110110111 X
b0 Y
0Z
0[
0b
bx c
0d
1e
b1010 g
b0 h
0l
bx m
bx m!
0n
bx n!
1o
xp!
b1010 q
b0 r
0r!
0s
bx t
xu
bx w!
0y
0z
0{
b0 {!
b0 |

#346000
1"

#350000
0!
00

#351000
0"

#355000
1!
0#"
b1011001010110010101100011011000110110000101100001010111110101111 (
0*"
0,"
10
1K
b1011001010110010101100011011000110110000101100001010111110101111 X
b1 Y
b1 {!
0}!

#356000
1"

#360000
0!
00

#361000
0"

#365000
1!
b100000001000000010000000100000001000000010000000100000001 (
0("
0)
0+"
10
0;
0S
b100000001000000010000000100000001000000010000000100000001 X
0q!

#366000
1"

#370000
0!
00

#371000
0"

#375000
1!
0*
10
05

#376000
1"

#380000
0!
00

#381000
0"

#385000
1!
1*
10
15

#386000
1"

#390000
0!
00

#391000
0"

#395000
1!
b110000001011111110111110110000001011111110111110 $
b11 %
b11000001 .
b11000001 /
10
b110000001011111110111110110000001011111110111110 2
b11 3
b1100000010111111101111100110000001011111110111110 =
b110000001011111110111110 _
1`
b110000001011111110111110 i
1j

#396000
1"

#400000
0!
00

#401000
0"

